,cat_estatus_operacion,EN OPERACION,1,,,EN OPERACION
,cat_estatus_operacion,FUERA DE OPERACION,3,,,FUERA DE OPERACION
,cat_estatus_operacion,PENDIENTE DE ENTRAR EN OPERACION,2,,,PENDIENTE DE ENTRAR EN OPERACION
,cat_estrato_unidad,URBANO,2,,,URBANO
,cat_estrato_unidad,NO ESPECIFICADO,3,,,NO ESPECIFICADO
,cat_estrato_unidad,RURAL,1,,,RURAL
,cat_establecimiento,DE ASISTENCIA SOCIAL,4,,,DE ASISTENCIA SOCIAL
,cat_establecimiento,DE CONSULTA EXTERNA,1,,,DE CONSULTA EXTERNA
,cat_establecimiento,DE HOSPITALIZACION,2,,,DE HOSPITALIZACION
,cat_establecimiento,DE APOYO,3,,,DE APOYO
,cat_institucion,SISTEMA NACIONAL PARA EL DESARROLLO INTEGRAL DE LA FAMILIA,DIF,,,DIF
,cat_institucion,HOSPITALES UNIVERSITARIOS,HUN,,,HUN
,cat_institucion,INSTITUTO MEXICANO DEL SEGURO SOCIAL,IMS,,,IMSS
,cat_institucion,INSTITUTO DE SEGURIDAD Y SERVICIOS SOCIALES PARA LOS TRABAJADORES DEL ESTADO,IST,,,ISSSTE
,cat_institucion,SECRETARIA DE COMUNICACIONES Y TRANSPORTES,SCT,,,SCT
,cat_institucion,SECRETARIA DE LA DEFENSA NACIONAL,SEDENA,,,SEDENA
,cat_institucion,SERVICIOS MEDICOS PRIVADOS,SMP,,,SMP
,cat_institucion,SECRETARIA DE SALUD,SSA,,,SSA
,cat_institucion,CENTROS DE INTEGRACION JUVENIL,CIJ,,,CIJ
,cat_institucion,CRUZ ROJA MEXICANA,CRO,,,CRO
,cat_institucion,INSTITUTO MEXICANO DEL SEGURO SOCIAL REGIMEN PROSPERA,IMO,,,IMSS-PROSPERA
,cat_institucion,SECRETARIA DE MARINA,SEMAR,,,SEMAR
,cat_institucion,SERVICIOS MEDICOS ESTATALES,SME,,,SME
,cat_institucion,SERVICIOS MEDICOS MUNICIPALES,SMM,,,SMM
,cat_institucion,PROCURADURIA GENERAL DE LA REPUBLICA,PGR,,,PGR
,cat_institucion,PETROLEOS MEXICANOS,PEMEX,,,PEMEX
,tipoUnidad,NO ESPECIFICADO,99,1,0,NO ESPECIFICADO
,tipoUnidad,HOSPITAL GENERAL DE ZONA,HGZ,1,1,HOSPITAL GENERAL DE ZONA
,tipoUnidad,UNIDAD DE MEDICINA FAMILIAR,UMF,1,2,UNIDAD DE MEDICINA FAMILIAR
,tipoUnidad,UNIDAD MEDICA DE ATENCION AMBULATORIA,UMAA,1,3,UNIDAD MEDICA DE ATENCION AMBULATORIA
,tipoUnidad,HOSPITAL GENERAL ,HG,1,4,HOSPITAL GENERAL 
,tipoUnidad,CLINICA DE MEDICINA FAMILIAR ,CMF,1,5,CLINICA DE MEDICINA FAMILIAR 
,tipoUnidad,UNIDAD DE MEDICINA FAMILIAR DE DOS CONSULTORIOS Y UN CONSULTORIO DENTAL,UMFC,1,6,UNIDAD DE MEDICINA FAMILIAR DE DOS CONSULTORIOS Y UN CONSULTORIO DENTAL
,tipoUnidad,UNIDAD DE MEDICINA FAMILIAR DE UN CONSULTORIO,UMFA,1,7,UNIDAD DE MEDICINA FAMILIAR DE UN CONSULTORIO
,tipoUnidad,CONSULTORIO ADYACENTE A FARMACIA,CAF,1,8,CONSULTORIO ADYACENTE A FARMACIA
,tipoUnidad,CONSULTORIO PARTICULAR,CP,1,9,CONSULTORIO PARTICULAR
,tipoUnidad,CLINICA DE ESPECIALIDADES,T,1,10,CLINICA DE ESPECIALIDADES
,tipoUnidad,HOSPITAL ESPECIALIZADO,O,1,11,HOSPITAL ESPECIALIZADO
,tipoUnidad,HOSPITAL GENERAL,M,1,12,HOSPITAL GENERAL
,tipoUnidad,HOSPITAL PSIQUIATRICO,Y,1,13,HOSPITAL PSIQUIATRICO
,tipoUnidad,URBANO DE 03 NUCLEOS BASICOS,F,1,14,URBANO DE 03 NUCLEOS BASICOS
,tipoUnidad,URBANO DE 04 NUCLEOS BASICOS,G,1,15,URBANO DE 04 NUCLEOS BASICOS
,tipoUnidad,URBANO DE 06 NUCLEOS BASICOS,I,1,16,URBANO DE 06 NUCLEOS BASICOS
,tipoUnidad,URBANO DE 05 NUCLEOS BASICOS,H,1,17,URBANO DE 05 NUCLEOS BASICOS
,tipoUnidad,URBANO DE 07 NUCLEOS BASICOS,J,1,18,URBANO DE 07 NUCLEOS BASICOS
,tipoUnidad,URBANO DE 09 NUCLEOS BASICOS,L,1,19,URBANO DE 09 NUCLEOS BASICOS
,tipoUnidad,RURAL DE 03 NUCLEOS BASICOS Y MAS,C,1,20,RURAL DE 03 NUCLEOS BASICOS Y MAS
,tipoUnidad,RURAL DE 01 NUCLEO BASICO,A,1,21,RURAL DE 01 NUCLEO BASICO
,tipoUnidad,RURAL DE 02 NUCLEOS BASICOS,B,1,22,RURAL DE 02 NUCLEOS BASICOS
,tipoUnidad,URBANO DE 08 NUCLEOS BASICOS,K,1,23,URBANO DE 08 NUCLEOS BASICOS
,tipoUnidad,URBANO DE 01 NUCLEOS BASICOS,D,1,24,URBANO DE 01 NUCLEOS BASICOS
,tipoUnidad,UNIDAD MOVIL,P,1,25,UNIDAD MOVIL
,tipoUnidad,ALMACENES,ALM,1,26,ALMACENES
,tipoUnidad,CENTRO ESTATAL DE TRASFUSION SANGUINEA (BANCOS DE SANGRE),CTS,1,27,CENTRO ESTATAL DE TRASFUSION SANGUINEA (BANCOS DE SANGRE)
,tipoUnidad,ANTIRRABICOS (CONTROL CANINO),ANT,1,28,ANTIRRABICOS (CONTROL CANINO)
,tipoUnidad,OFICINAS ADMINISTRATIVAS,OFI,1,29,OFICINAS ADMINISTRATIVAS
,tipoUnidad,LABORATORIOS,LAB,1,30,LABORATORIOS
,tipoUnidad,URBANO DE 02 NUCLEOS BASICOS,E,1,31,URBANO DE 02 NUCLEOS BASICOS
,tipoUnidad,UNIDAD DE ESPECIALIDADES MEDICAS (UNEMES),UNE,1,32,UNIDAD DE ESPECIALIDADES MEDICAS (UNEMES)
,tipoUnidad,OTROS ESTABLECIMIENTOS DE APOYO,OTR,1,33,OTROS ESTABLECIMIENTOS DE APOYO
,tipoUnidad,NO ESPECIFICADO,NES,1,34,NO ESPECIFICADO
,tipoUnidad,UNIDAD MEDICA RURAL,UMR,1,35,UNIDAD MEDICA RURAL
,tipoUnidad,HOSPITAL RURAL,HR,1,36,HOSPITAL RURAL
,tipoUnidad,UNIDAD MEDICA URBANA,UMU,1,37,UNIDAD MEDICA URBANA
,tipoUnidad,UNIDAD MEDICA MOVIL,UMM,1,38,UNIDAD MEDICA MOVIL
,tipoUnidad,HOSPITAL GENERAL DE ZONA CON MEDICINA FAMILIAR,HGZMF,1,39,HOSPITAL GENERAL DE ZONA CON MEDICINA FAMILIAR
,tipoUnidad,UNIDAD DE MEDICINA FAMILIAR CON HOSPITALIZACION,UMFH,1,40,UNIDAD DE MEDICINA FAMILIAR CON HOSPITALIZACION
,tipoUnidad,HOSPITAL GENERAL DE SUBZONA CON MEDICINA FAMILIAR,HGSMF,1,41,HOSPITAL GENERAL DE SUBZONA CON MEDICINA FAMILIAR
,tipoUnidad,HOSPITAL DE GINECO-PEDIATRIA CON MEDICINA FAMILIAR,HGPMF,1,42,HOSPITAL DE GINECO-PEDIATRIA CON MEDICINA FAMILIAR
,tipoUnidad,HOSPITAL DE GINECO-OBSTETRICIA CON MEDICINA FAMILIAR,HGOMF,1,43,HOSPITAL DE GINECO-OBSTETRICIA CON MEDICINA FAMILIAR
,tipoUnidad,HOSPITAL GENERAL REGIONAL,HGR,1,44,HOSPITAL GENERAL REGIONAL
,tipoUnidad,CLINICA HOSPITAL ,CH,1,45,CLINICA HOSPITAL 
,tipoUnidad,UNIDAD DE MEDICINA FAMILIAR CON MODULO RESOLUTIVO TIPO I,MRI,1,46,UNIDAD DE MEDICINA FAMILIAR CON MODULO RESOLUTIVO TIPO I
,tipoUnidad,UNIDAD DE MEDICINA FAMILIAR DE DOS CONSULTORIOS,UMFB,1,47,UNIDAD DE MEDICINA FAMILIAR DE DOS CONSULTORIOS
,tipoUnidad,URBANO DE 12 NUCLEOS BASICOS Y MAS,S,1,48,URBANO DE 12 NUCLEOS BASICOS Y MAS
,tipoUnidad,CLINICA,CLI,1,49,CLINICA
,tipoUnidad,CENTROS AVANZADOS DE ATENCION PRIMARIA A LA SALUD (CAAPS),CAP,1,50,CENTROS AVANZADOS DE ATENCION PRIMARIA A LA SALUD (CAAPS)
,tipoUnidad,CENTRO DE SALUD CON HOSPITALIZACION,Z,1,51,CENTRO DE SALUD CON HOSPITALIZACION
,tipoUnidad,URBANO DE 10 NUCLEOS BASICOS,Q,1,52,URBANO DE 10 NUCLEOS BASICOS
,tipoUnidad,HOSPITAL GENERAL DE SUBZONA,HGS,1,53,HOSPITAL GENERAL DE SUBZONA
,tipoUnidad,SERVICIO MEDICO FORENSE,SEMEFO,1,54,SERVICIO MEDICO FORENSE
,tipoUnidad,CASA DE SALUD,W,1,55,CASA DE SALUD
,tipoUnidad,HOSPITAL INTEGRAL (COMUNITARIO),N,1,56,HOSPITAL INTEGRAL (COMUNITARIO)
,tipoUnidad,BRIGADAS DE SALUD ,BS,1,57,BRIGADAS DE SALUD 
,tipoUnidad,UNIDAD DE MEDICINA FAMILIAR CON MODULO RESOLUTIVO TIPO II ,MRII,1,58,UNIDAD DE MEDICINA FAMILIAR CON MODULO RESOLUTIVO TIPO II 
,tipoUnidad,CENTROS DE SALUD CON SERVICIOS AMPLIADOS,CES,1,59,CENTROS DE SALUD CON SERVICIOS AMPLIADOS
,tipoUnidad,CENTRO DE ATENCION RURAL OBSTETRICA,CARO,1,60,CENTRO DE ATENCION RURAL OBSTETRICA
,tipoUnidad,HOSPITAL DE GINECO-OBSTETRICIA,HGO,1,61,HOSPITAL DE GINECO-OBSTETRICIA
,tipoUnidad,"UNIDAD DE MEDICINA FAMILIAR DE TRES CONSULTORIOS, UN CONSULTORIO DENTAL Y UN CONSULTORIO DE MEDICINA PREVENTIVA",UMFD,1,62,"UNIDAD DE MEDICINA FAMILIAR DE TRES CONSULTORIOS, UN CONSULTORIO DENTAL Y UN CONSULTORIO DE MEDICINA PREVENTIVA"
,tipoUnidad,UNIDAD MEDICINA RURAL - ESQUEMA MODIFICADO,UMR,1,63,UNIDAD MEDICINA RURAL - ESQUEMA MODIFICADO
,tipoUnidad,HOSPITAL DE ESPECIALIDADES,HESP,1,64,HOSPITAL DE ESPECIALIDADES
,tipoUnidad,UNIDAD DE MEDICINA FAMILIAR CON UNIDAD MEDICA DE ATENCION AMBULATORIA,UMF/UMAA,1,65,UNIDAD DE MEDICINA FAMILIAR CON UNIDAD MEDICA DE ATENCION AMBULATORIA
,tipoUnidad,"UNIDAD DE MEDICINA FAMILIAR DE CUATRO CONSULTORIOS, UN CONSULTORIO DENTAL Y UN CONSULTORIO DE MEDICINA PREVENTIVA",UMFE,1,66,"UNIDAD DE MEDICINA FAMILIAR DE CUATRO CONSULTORIOS, UN CONSULTORIO DENTAL Y UN CONSULTORIO DE MEDICINA PREVENTIVA"
,tipoUnidad,CONSULTORIO AUXILIAR,CA,1,67,CONSULTORIO AUXILIAR
,tipoUnidad,CONSULTORIO DELEGACIONAL,U,1,68,CONSULTORIO DELEGACIONAL
,tipoUnidad,BRIGADA MOVIL,X,1,69,BRIGADA MOVIL
,tipoUnidad,MICROREGION,MR,1,70,MICROREGION
,tipoUnidad,BANCO DE SANGRE,BS,1,71,BANCO DE SANGRE
,tipoUnidad,HOSPITAL INFECTOLOGIA,HINF,1,72,HOSPITAL INFECTOLOGIA
,tipoUnidad,CONSULTA EXTERNA DE ESPECIALIDADES,CEXT,1,73,CONSULTA EXTERNA DE ESPECIALIDADES
,tipoUnidad,UNIDAD DE MEDICINA FISICA Y REHABILITACION,UMFR,1,74,UNIDAD DE MEDICINA FISICA Y REHABILITACION
,tipoUnidad,HOSPITAL DE GINECO-PEDIATRIA,HGP,1,75,HOSPITAL DE GINECO-PEDIATRIA
,tipoUnidad,HOSPITAL DE ORTOPEDIA,HORTO,1,76,HOSPITAL DE ORTOPEDIA
,tipoUnidad,HOPITAL DE PSIQUIATRIA,HPSIQ,1,77,HOPITAL DE PSIQUIATRIA
,tipoUnidad,HOSPITAL DE TRAUMATOLOGIA,HTRA,1,78,HOSPITAL DE TRAUMATOLOGIA
,tipoUnidad,HOSPILTAL DE CARDIOLOGIA,HCARD,1,79,HOSPILTAL DE CARDIOLOGIA
,tipoUnidad,HOSPITAL DE ONCOLOGIA,HONCO,1,80,HOSPITAL DE ONCOLOGIA
,tipoUnidad,HOSPITAL PEDIATRIA,HPED,1,81,HOSPITAL PEDIATRIA
,tipoUnidad,HOPITAL PSIQUIATRIA CON MEDICINA FAMILIAR,HPSIQMF,1,82,HOPITAL PSIQUIATRIA CON MEDICINA FAMILIAR
,tipoUnidad,HOSPITAL GENERAL REGIONAL CON UNIDAD MEDICA DE ATENCION AMBULATORIA,HGR/UMAA,1,83,HOSPITAL GENERAL REGIONAL CON UNIDAD MEDICA DE ATENCION AMBULATORIA
,tipoUnidad,UNIDAD DE DETECCION Y DIAGNOSTICO ,UCMA,1,84,UNIDAD DE DETECCION Y DIAGNOSTICO 
,tipoUnidad,CLINICA DE ESPECIALIDADES ,CE,1,85,CLINICA DE ESPECIALIDADES 
,tipoUnidad,HOSPITAL REGIONAL ,HR,1,86,HOSPITAL REGIONAL 
,tipoUnidad,CENTRO MEDICO NACIONAL,CMN,1,87,CENTRO MEDICO 
,tipoUnidad,UNIDAD MINISTERIO PUBLICO,V,1,88,UNIDAD MINISTERIO PUBLICO
,tipoUnidad,URBANO DE 11 NUCLEOS BASICOS,R,1,89,URBANO DE 11 NUCLEOS BASICOS
,tipoUnidad,OTRA CONSULTA EXTERNA,OTCE,1,90,OTRA CONSULTA EXTERNA
,tipoUnidad,UNIDAD MOVIL,UM,1,91,UNIDAD MOVIL
,tipoUnidad,OTRO,OTR,1,92,OTRO
,tipoUnidad,LABORATORIO DE CITOLOGIA,LRCE,1,93,LABORATORIO DE CITOLOGIA
,tipoUnidad,CENTRO COMUNITARIO DE SALUD MENTAL,CCSM,1,94,CENTRO COMUNITARIO DE SALUD MENTAL
,tipoUnidad,HOSPITAL DE TRAUMATOLOGIA Y ORTOPEDIA,HTO,1,95,HOSPITAL DE TRAUMATOLOGIA Y ORTOPEDIA
,tipoUnidad,UNIDAD DE CONTROL METABOLICO AMBULATORIO ,UDDX,1,96,UNIDAD DE CONTROL METABOLICO AMBULATORIO 
,tipoUnidad,SANIDAD INTERNACIONAL,SAN,1,97,SANIDAD INTERNACIONAL
,tipoUnidad,SERVICIOS MEDICOS PERICIALES,PERICIALES,1,98,SERVICIOS MEDICOS PERICIALES
,tipoUnidad,NO APLICA,NA,1,99,NO APLICA
,cat_nivel_atencion,NO APLICA,6,,,NO APLICA
,cat_nivel_atencion,PRIMER NIVEL,1,,,PRIMER NIVEL
,cat_nivel_atencion,SEGUNDO NIVEL,2,,,SEGUNDO NIVEL
,cat_nivel_atencion,TERCER NIVEL,3,,,TERCER NIVEL
,cat_tipo_contacto,Contacto Médico,1,,,
,cat_tipo_contacto,Contacto Administrativo,2,,,
,cat_tipo_atencion,Atención de parto embarazo y puerperio,part,1,,
,cat_tipo_atencion,Cesáreas,ces,1,,
,cat_tipo_atencion,Enfermedades del apendice,apen,1,,
,cat_tipo_atencion,Hernias,hern,1,,
,cat_tipo_atencion,Cirugía endoscopica urologica,endo,1,,
,cat_tipo_atencion,Coloproctologla,colo,0,,
,cat_tipo_atencion,Ulceras gástrica y duodenal complicada,ulc,1,,
,cat_tipo_atencion,Traumatismos y envenenamientos,trau,0,,
,cat_tipo_atencion,Colelitiasis y colecistltis,cole,1,,
,cat_tipo_atencion,Litiasis urinaria agudizada,lit,0,,
,cat_tipo_atencion,Ileo paralítico y obstrucción intestinal sin hernia,ile,0,,
,cat_tipo_atencion,"Enfermedades inflamatorias del útero, de la vagina y de la vulva agudizadas",ute,0,,
,cat_tipo_atencion,Salpingitis y ooforitis,sal,0,,
,cat_tipo_atencion,covid-19,cov,1,,
133,part,ATENCIÓN DEL PARTO Y PUERPERIO FISIOLÓGICO,1,1,,
133,part,DIAGNOSTICO Y TRATAMIENTO DE AMENZA DE ABORTO Y DE PARTO PRETERMINO ,2,1,,
133,part,DIAGNÓSTICO Y TRATAMIENTO DE AMENAZA DE ABORTO.,4,1,,
133,part,EXTRACCIÓN DE-EMBRIÓN INTRAPERITONEAL,5,1,,
133,part,HEMORRAGIA OBSTÉTRICA PUERPERAL,6,1,,
133,part,DESPRENDIMIENTO PREMATURO DE PLACENTA NORMOINSERTA (INCLUYE LA RESOLUCIÓN DEL PARTO),7,1,,
133,part,HEMORRAGIA POR PLACENTA PREVIA (NO INCLUYE ACCIONES CONSECUTIVAS),9,1,,
133,part,PAQUETE PARTO DISTÓCICO,10,1,,
133,part,TRATAMIENTO QUIRÚRGICO DE EMBARAZO ECTÓPICO,11,1,,
133,part,LEGRADO UTERINO TERAPÉUTICO POR ABORTO INCOMPLETO,12,1,,
133,part,ATENCIÓN QUIRÚRGICA  DE LA  ENFERMEDAD TROFOBLÁSTICA,13,1,,
133,part,DIAGNÓSTICO Y TRATAMIENTO DE CORIOAMNIOÍTIS,14,1,,
133,part,DIAGNÓSTICO  Y TRATAMIENTO  DE ECLAMPSIA,15,1,,
133,part,DIAGNÓSTICO  Y TRATAMIENTO DE EMBOLIAS OBSTÉTRICAS,16,1,,
133,part,DIAGNÓSTICO Y TRATAMIENTO DE PRE-ECLAMPSIA,17,1,,
133,part,DIAGNÓSTICO Y TRATAMIENTO DE PRE-ECLAMPSIA SEVERA,18,1,,
133,part,DIAGNÓSTICO Y TRATAMIENTO DE SÍNDROME DE HELLP,19,1,,
133,part,DIAGNÓSTICO Y TRATAMIENTO DE TROMBOSIS VENOSA PROFUNDA EN LA MUJER EMBARAZADA,20,1,,
133,part,DIAGNÓSTICO Y TRATAMIENTO DEL CHOQUE SÉPTICO PUERPERAL,21,1,,
133,part,ENDOMETRITIS PUERPERAL,22,1,,
133,part,INFECCIÓN SUPERFICIAL DE EPISIORRAFIA O HERIDA QUIRÚRGICA OBSTÉTRICA,23,1,,
133,part,ATENCIÓN DEL RECIEN NACIDO,24,1,,
134,ces,ATENCIÓN DE CESÁREA Y PUERPERIO QUIRÚRGICO,1,1,,
134,ces,CESÁREA  DE OTRO TIPO ESPECIFICADO,2,1,,
134,ces,CESÁREA EXTRAPERITONEAL,3,1,,
134,ces,CESÁREA HISTERECTOMIA,4,1,,
134,ces,HISTERECTOMIA ABDOMINAL CON LIGADURA SIN EMPAQUETAMIENTO,5,1,,
134,ces,HISTERECTOMIA ABDOMINAL CON LIGADURA CON EMPAQUETAMIENTO,6,1,,
134,ces,REPARACIÓN UTERINA,7,1,,
134,ces,ATENCIÓN DEL RECIEN NACIDO,8,1,,
135,apen,APENDICECTOMÍA,1,1,,
135,apen,LAPAROSCOPIA DE URGENCIA,2,1,,
135,apen,LAPAROTOMÍA EXPLORADORA DE URGENCIA,3,1,,
136,hern,HERNIOPLASTIA CRURAL ENCARCELADA O ESTRANGULADA,1,1,,
136,hern,HERNIOPLASTIA  INGUINAL ENCARCELADA O ESTRANGULADA,2,1,,
136,hern,HERNIOPLASTIA UMBILICAL ENCARCELADA O ESTRANGULADA,3,1,,
136,hern,HERNIOPLASTIA VENTRAL ENCARCELADA O ESTRANGULADA,4,1,,
137,endo,URETEROSCOPÍA DIAGNÓSTICA DE URGENCIA,1,1,,
137,endo,URETEROSCOPÍA TERAPEÚTICA DE URGENCIA,2,1,,
137,endo,COLOCACIÓN DE CATÉTER DOBLE J,3,1,,
138,colo,TRATAMIENTO QUIRÚRGICO DE FÍSTULA Y FISURA ANAL,1,,,
138,colo,TRATAMIENTO QUIRÚRGICO  ABSCESO RECTAL,2,,,
139,ulc,DIAGNÓSTICO  Y TRATAMIENTO  DE HEMORRAGIA DIGESTIVA,1,1,,
139,ulc,LIGADURA DE VARICES ESOFÁGICAS,2,1,,
140,trau,REDUCCIÓN QUIRÚRGICA DE FRACTURA DE CADERA (INCLUYE HEMIPRÓTESIS CON ACETÁBULO),1,,,
140,trau,REDUCCIÓN QUIRÚRGICA DE FRACTURA DE CLAVICULA,2,,,
140,trau,REDUCCIÓN QUIRÚRGICA DE FRACTURA DE HUMERO (INCLUYE MATERIAL DE OSTEOSÍNTESIS,3,,,
140,trau,REDUCCIÓN QUIRÚRGICA  DE FRACTURA DE MANO,4,,,
140,trau,REDUCCIÓN QUIRÚRGICA DE FRACTURA DE TIBIA Y PERONÉ (INCLUYE MATERIAL DE  0STEOSÍNTESIS,5,,,
140,trau,REDUCCIÓN QUIRÚRGICA DE FRACTURA DE TOBILLO Y PIE,6,,,
140,trau,REDUCCIÓN QUIRÚRGICA DE FRACTURAS DE HUMERO (INCLUYE MATERIAL DE OSTEOSÍNTESIS,7,,,
140,trau,REDUCCIÓN QUIRÚRGICA POR LUXACIONES,8,,,
140,trau,REDUCCIÓN QUIRÚRGICA DE FRACTURA DE CÚBITO Y RADIO (INCLUYE MATERIAL DE OSTEOSÍNTESIS),9,,,
141,cole,COLECISTECTOMÍA ABIERTA POR COLANGITIS Y SINDROME ICTERICO,1,1,,
141,cole,COLECISTECTOMÍA LAPAROSCÓPICA POR COLANGITIS Y SINDROME ICTERICO,2,1,,
141,cole,PANENDOSCOPÍA DE URGENCIA POR CUERPO EXTRAÑO O SANGRADO,3,1,,
141,cole,COLONOSCOPÍA POR CUERPO EXTRAÑO O SANGRADO,4,1,,
141,cole,COLANGIOGRAFÍA RETROGRADA ENDOSCÓPICA [CRE] CON ICTERICIA Y COLANGITIS,5,1,,
141,cole,ENDOSCOPÍA (CISTOSCOPÍA) DEL CONDUCTO ILEAL SANGRADO O CUERPO EXTRAÑO,6,1,,
142,lit,DIAGNÓSTICO  Y TRATAMIENTO DE LA LITIASIS DE VIAS URINARIAS INFERIORES,1,,,
142,lit,DIAGNÓSTICO  YTRATAMIENTO  OE PIELONEFRITIS,2,,,
142,lit,DIAGNÓSTICO  Y TRATAMIENTO DE LA LITIASIS DE V/AS URINARIAS INFERIORES,3,,,
142,lit,DIAGNÓSTICO Y TRATAMIENTO DE LA LITIASIS RENAL Y URETERAL,4,,,
143,ile,TRATAMIENTO QUIRÚRGICO  DE OBSTRUCCIÓN INTESTINAL,1,,,
144,ute,DIAGNÓSTICO Y TRATAMIENTO DE LA ENFERMEDAD PÉLVICA INFLAMATORIA,1,,,
145,sal,TRATAMIENTO QUIRÚRGICO DE ENFERMEDAD DIVERTICULAR,1,,,
145,sal,TRATAMIENTO QUIRÚRGICO DE QUISTES DE  OVARIO,2,,,
146,cov,ESTANCIA DÍA PACIENTE (PREVIA AUTORIZACIÓN DE LA DIRECCIÓN NORMATIVA DE SALUD),1,1,,
146,cov,ESTANCIA DÍA PACIENTE TERAPlA INTENSIVA (PREVIA AUTORIZACIÓN DE LA DIRECCIÓN NORMATIVA DE SALUD),2,1,,
,cat_condicion_clinica,ESTABLE,1,,,
,cat_condicion_clinica,DELICADO,2,,,
,cat_condicion_clinica,GRAVE,3,,,
,cat_condicion_clinica,MUY GRAVE,4,,,
,cat_tipo_atencion,HOSPITALIZACIÓN TERAPIA INTENSIVA,uti,1,,
220,uti_neo,DÍA CAMA TERAPIA INTENSIVA NEONATAL,uti_neo,1,,
220,uti_cam,DÍA CAMA EN TERAPIA INTENSIVA,cam_uti,1,,
,cat_status_referencia,registrado,1,,,
,cat_status_referencia,generado,2,,,
,cat_status_referencia,enviado ws,3,,,
,cat_status_referencia,error ws,4,,,
