1;001-204-00;ASIST000016;1;1;1
2;001-205-00;ASIST000021;1;1;1
3;001-205-01;ASIST000050;1;1;1
4;001-205-02;;1;1;0
5;001-205-03;ASIST000033;1;1;1
6;001-205-04;ASIST000045;1;1;1
7;001-205-05;ASIST000074;1;1;1
8;001-205-06;;1;1;0
9;001-205-07;;1;1;0
10;001-205-08;ASIST000103;1;1;1
11;001-205-09;ASIST000115;1;1;1
12;001-205-10;ASIST000120;1;1;1
13;002-204-00;BCIST000040;2;2;1
14;002-204-01;BCIST000076;2;2;1
15;002-204-02;BCIST000052;2;2;1
16;002-204-03;BCIST000064;2;2;1
17;002-205-00;BCIST000093;2;2;0
18;002-209-01;BCIST000134;2;2;1
19;002-209-02;BCIST000081;2;2;1
20;002-206-00;BCIST000011;2;2;1
21;002-206-02;BCIST000023;2;2;1
22;002-206-03;BCIST000035;2;2;1
23;002-206-04;BCIST000105;2;2;1
24;002-206-05;BCIST000110;2;2;1
25;002-206-08;BCIST000122;2;2;1
26;003-207-00;BSIST000330;3;3;1
27;003-207-01;BSIST000096;3;3;1
28;003-207-02;BSIST000270;3;3;1
29;003-207-03;BSIST000265;3;3;1
30;003-207-04;BSIST000294;3;3;1
31;003-207-05;BSIST000241;3;3;1
32;003-207-06;BSIST000306;3;3;1
33;003-207-07;BSIST000282;3;3;1
34;003-207-08;BSIST000101;3;3;0
35;003-207-09;BSIST000236;3;3;1
36;003-207-10;BSIST000311;3;3;1
37;003-207-11;BSIST000084;3;3;1
38;003-207-12;BSIST000224;3;3;1
39;003-207-13;BSIST000253;3;3;1
40;003-205-00;BSIST000014;3;3;1
41;003-205-01;BSIST000113;3;3;1
42;003-205-02;BSIST000130;3;3;1
43;003-205-03;BSIST000031;3;3;1
44;003-205-04;BSIST000166;3;3;1
45;003-205-05;BSIST000142;3;3;1
46;003-205-06;BSIST000026;3;3;1
47;003-205-07;BSIST000154;3;3;1
48;003-206-00;BSIST000043;3;3;1
49;003-206-01;BSIST000171;3;3;1
50;003-206-02;BSIST000183;3;3;1
51;003-206-03;BSIST000055;3;3;1
52;003-206-04;BSIST000195;3;3;1
53;003-206-05;BSIST000200;3;3;1
54;003-206-06;BSIST000212;3;3;1
55;003-206-07;BSIST000060;3;3;1
56;004-204-00;CCIST000021;4;4;1
57;004-204-01;CCIST000016;4;4;1
58;004-204-02;CCIST000086;4;4;1
59;004-204-03;CCIST000045;4;4;1
60;004-204-04;CCIST000074;4;4;1
61;004-204-05;CCIST000050;4;4;1
62;004-204-06;CCIST000062;4;4;1
63;004-204-07;CCIST000091;4;4;1
64;004-204-08;CCIST000115;4;4;1
65;004-205-00;CCIST000033;4;4;1
66;004-205-01;CCIST000103;4;4;1
67;005-220-00;CLIST000106;5;5;0
68;005-220-01;CLIST000222;5;5;1
69;005-220-02;CLIST000275;5;5;1
70;005-220-04;CLIST000280;5;5;1
71;005-220-05;CLIST000292;5;5;1
72;005-220-06;CLIST000263;5;5;1
73;005-220-07;CLIST000082;5;5;1
74;005-205-00;CLIST000123;5;5;1
75;005-206-00;CLIST000065;5;5;1
76;005-206-01;CLIST000210;5;5;1
77;005-206-02;CLIST000036;5;5;1
78;005-206-03;CLIST000321;5;5;1
79;005-206-04;CLIST000251;5;5;1
80;005-206-05;CLIST000304;5;5;1
81;005-206-06;;5;5;0
82;005-207-00;CLIST000094;5;5;1
83;005-207-01;CLIST000024;5;5;1
84;005-207-02;CLIST000234;5;5;0
85;005-207-03;CLIST000135;5;5;1
86;005-207-04;;5;5;0
87;005-208-00;CLIST000012;5;5;1
88;005-209-00;;5;5;0
89;005-209-01;CLIST000070;5;5;1
90;005-209-02;CLIST000246;5;5;0
91;005-210-00;CLIST000181;5;5;0
92;005-211-00;CLIST000111;5;5;1
93;005-211-01;CLIST000041;5;5;1
94;005-211-02;CLIST000316;5;5;1
95;005-216-00;CLIST000140;5;5;1
96;005-216-01;CLIST000053;5;5;1
97;005-216-02;;5;5;0
98;005-216-03;CLIST000176;5;5;0
99;006-204-00;CMIST000010;6;6;1
100;006-204-01;CMIST000046;6;6;1
101;006-204-02;CMIST000051;6;6;1
102;006-204-03;CMIST000034;6;6;1
103;006-205-00;CMIST000022;6;6;1
104;007-204-00;CSIST000251;7;7;1
105;007-205-00;CSIST000210;7;7;1
106;007-205-01;CSIST000041;7;7;1
107;007-205-02;CSIST000205;7;7;1
108;007-205-03;CSIST000106;7;7;1
109;007-205-04;CSIST000123;7;7;1
110;007-205-05;CSIST000135;7;7;1
111;007-205-06;CSIST000012;7;7;1
112;007-205-07;CSIST000403;7;7;1
113;007-205-08;CSIST000415;7;7;1
114;007-206-00;CSIST000193;7;7;1
115;007-206-01;CSIST000140;7;7;1
116;007-206-02;CSIST000164;7;7;1
117;007-206-03;CSIST000275;7;7;1
118;007-206-04;CSIST000181;7;7;1
119;007-206-05;CSIST000350;7;7;1
120;007-206-06;CSIST000333;7;7;1
121;007-207-00;CSIST000065;7;7;1
122;007-207-01;CSIST000094;7;7;1
123;007-207-02;CSIST000391;7;7;1
124;007-207-03;CSIST000374;7;7;1
125;007-207-04;CSIST000485;7;7;1
126;007-208-00;CSIST000246;7;7;1
127;007-208-01;CSIST000024;7;7;1
128;007-208-02;CSIST000036;7;7;1
129;007-208-03;CSIST000053;7;7;1
130;007-208-04;CSIST000386;7;7;1
131;007-208-05;CSIST000070;7;7;1
132;007-208-06;CSIST000082;7;7;1
133;007-208-08;CSIST000111;7;7;1
134;007-208-09;CSIST000152;7;7;1
135;007-208-11;CSIST000176;7;7;1
136;007-208-16;CSIST000222;7;7;1
137;007-208-17;CSIST000234;7;7;1
138;007-208-18;CSIST000304;7;7;1
139;007-208-19;CSIST000280;7;7;1
140;007-208-20;CSIST000263;7;7;1
141;007-208-22;CSIST000432;7;7;1
142;007-208-23;CSIST000444;7;7;1
143;007-208-24;CSIST000456;7;7;1
144;007-208-25;CSIST000461;7;7;1
145;007-208-26;CSIST000321;7;7;1
146;007-208-28;CSIST000473;7;7;1
147;007-208-29;CSIST000292;7;7;1
148;007-208-30;CSIST000420;7;7;1
149;007-208-31;CSIST000316;7;7;1
150;007-208-32;CSIST000362;7;7;1
151;007-208-33;CSIST000490;7;7;1
152;008-204-00;CHIST000030;8;8;1
153;008-204-01;CHIST000310;8;8;1
155;008-204-03;;8;8;0
156;008-204-04;CHIST000182;8;8;1
157;008-204-05;;8;8;0
158;008-204-07;;8;8;0
159;008-204-08;CHIST000153;8;8;1
160;008-205-00;CHIST000112;8;8;1
161;008-206-00;CHIST000042;8;8;1
162;008-207-00;CHIST000095;8;8;1
163;008-207-01;CHIST000223;8;8;1
164;008-207-03;CHIST000334;8;8;1
165;008-207-04;CHIST000066;8;8;1
166;008-207-05;CHIST000450;8;8;1
167;008-207-06;CHIST000462;8;8;1
168;008-207-07;CHIST000194;8;8;1
169;008-207-08;CHIST000491;8;8;1
170;008-207-09;CHIST000136;8;8;1
171;008-207-12;CHIST000281;8;8;1
172;008-207-13;CHIST000100;8;8;1
173;008-210-00;CHIST000025;8;8;1
174;008-210-01;CHIST000474;8;8;1
175;008-210-03;CHIST000404;8;8;1
176;008-210-04;CHIST000305;8;8;1
177;008-210-06;CHIST000240;8;8;1
178;008-210-09;CHIST000392;8;8;1
179;008-210-10;CHIST000071;8;8;1
180;008-210-11;CHIST000083;8;8;1
181;008-210-13;CHIST000124;8;8;1
182;008-210-14;CHIST000433;8;8;0
183;008-210-15;CHIST000375;8;8;0
184;008-210-16;CHIST000346;8;8;1
185;008-210-17;CHIST000322;8;8;0
186;008-210-18;CHIST000416;8;8;1
187;008-210-19;CHIST000276;8;8;1
188;008-210-20;CHIST000235;8;8;1
189;008-210-21;CHIST000380;8;8;1
190;008-210-23;CHIST000486;8;8;1
191;008-210-24;CHIST000421;8;8;1
192;008-211-00;CHIST000363;8;8;1
193;008-211-01;CHIST000211;8;8;1
194;008-211-03;CHIST000445;8;8;1
195;008-211-04;CHIST000206;8;8;1
196;008-211-05;CHIST000141;8;8;1
197;008-211-06;CHIST000170;8;8;1
198;008-211-07;CHIST000264;8;8;1
199;008-211-08;CHIST000252;8;8;1
200;008-211-09;CHIST000351;8;8;1
201;008-211-10;;8;8;0
202;008-213-00;CHIST000054;8;8;1
203;008-213-02;CHIST000165;8;8;1
204;008-213-03;CHIST000013;8;8;1
205;010-204-00;DGIST000042;10;10;1
206;010-205-00;DGIST000346;10;10;1
207;010-206-00;DGIST000054;10;10;1
208;010-206-01;DGIST000025;10;10;1
209;010-206-03;DGIST000136;10;10;1
210;010-206-04;DGIST000375;10;10;0
211;010-206-05;DGIST000100;10;10;1
212;010-206-06;DGIST000071;10;10;1
213;010-206-07;DGIST000083;10;10;1
214;010-206-08;DGIST000380;10;10;1
215;010-206-09;DGIST000416;10;10;1
216;010-206-10;DGIST000112;10;10;1
217;010-206-11;DGIST000170;10;10;1
218;010-206-12;DGIST000363;10;10;1
219;010-206-13;DGIST000404;10;10;1
220;010-206-14;DGIST000351;10;10;1
221;010-206-15;DGIST000433;10;10;1
222;010-206-16;;10;10;0
223;010-207-00;DGIST000030;10;10;1
224;010-207-01;DGIST000013;10;10;1
225;010-207-02;DGIST000206;10;10;1
226;010-207-03;DGIST000124;10;10;1
227;010-207-04;DGIST000223;10;10;1
228;010-207-05;DGIST000066;10;10;1
229;010-207-06;DGIST000235;10;10;1
230;010-207-07;DGIST000445;10;10;1
231;010-207-08;DGIST000095;10;10;1
232;010-207-09;DGIST000194;10;10;1
233;010-207-10;DGIST000141;10;10;1
234;010-207-11;DGIST000281;10;10;1
235;010-207-12;DGIST000153;10;10;1
236;010-207-13;DGIST000293;10;10;1
237;010-207-14;DGIST000305;10;10;1
238;010-207-15;DGIST000310;10;10;1
239;010-207-16;DGIST000165;10;10;1
240;010-207-17;DGIST000322;10;10;1
241;010-207-18;DGIST000182;10;10;1
242;010-207-19;DGIST000334;10;10;1
243;010-207-24;DGIST000211;10;10;0
244;010-207-26;DGIST000240;10;10;1
245;010-207-28;;10;10;0
246;010-207-29;DGIST000252;10;10;1
247;037-203-00;GTIST000091;11;11;1
248;011-204-00;GTIST000086;11;11;1
249;011-204-01;GTIST000016;11;11;1
250;011-204-02;GTIST000260;11;11;1
251;011-204-03;GTIST000103;11;11;1
252;011-204-04;GTIST000115;11;11;1
253;011-204-05;GTIST000185;11;11;1
254;011-204-06;GTIST000190;11;11;1
255;011-204-07;GTIST000202;11;11;1
256;011-204-08;GTIST000243;11;11;1
257;011-204-09;GTIST000313;11;11;1
258;011-204-10;GTIST000144;11;11;1
259;011-205-00;GTIST000325;11;11;1
260;011-206-00;GTIST000074;11;11;1
261;011-206-01;GTIST000062;11;11;1
262;011-206-02;GTIST000330;11;11;1
263;011-206-03;GTIST000161;11;11;1
264;011-206-04;GTIST000156;11;11;1
265;011-206-05;GTIST000383;11;11;1
266;011-206-06;GTIST000395;11;11;1
267;011-206-07;GTIST000272;11;11;1
268;011-206-08;GTIST000412;11;11;1
269;011-206-09;GTIST000301;11;11;1
270;011-206-10;GTIST000132;11;11;1
271;011-206-11;GTIST000173;11;11;1
272;011-207-00;GTIST000045;11;11;1
273;011-207-01;GTIST000021;11;11;1
274;011-207-02;GTIST000214;11;11;1
275;011-207-03;GTIST000226;11;11;1
276;011-207-04;GTIST000255;11;11;1
277;011-207-05;GTIST000050;11;11;1
278;011-207-06;GTIST000284;11;11;1
279;011-207-07;GTIST000296;11;11;1
280;011-207-08;GTIST000342;11;11;1
281;011-207-09;GTIST000231;11;11;1
282;011-207-10;GTIST000120;11;11;1
283;011-207-11;GTIST000033;11;11;1
284;011-207-12;GTIST000354;11;11;1
285;011-207-13;GTIST000366;11;11;1
286;011-207-14;GTIST000371;11;11;1
287;011-207-15;GTIST000400;11;11;1
288;012-204-00;GRIST000025;12;12;1
289;012-205-00;GRIST000112;12;12;1
290;012-205-01;GRIST000100;12;12;1
291;012-205-02;GRIST000450;12;12;1
292;012-205-03;GRIST000124;12;12;1
293;012-205-04;GRIST000182;12;12;1
294;012-205-05;GRIST000170;12;12;1
295;012-205-06;GRIST000281;12;12;1
296;012-205-07;GRIST000421;12;12;0
297;012-205-09;GRIST000136;12;12;1
298;012-205-10;GRIST000433;12;12;1
299;012-205-11;GRIST000445;12;12;0
300;012-205-13;GRIST000503;12;12;1
301;012-206-00;GRIST000153;12;12;1
302;012-206-01;GRIST000030;12;12;1
303;012-206-03;GRIST000363;12;12;1
304;012-206-04;GRIST000042;12;12;1
305;012-206-05;GRIST000380;12;12;1
306;012-206-06;GRIST000095;12;12;1
307;012-206-07;GRIST000404;12;12;1
308;012-206-08;GRIST000141;12;12;1
309;012-206-09;GRIST000276;12;12;1
310;012-206-10;GRIST000305;12;12;1
311;012-206-12;GRIST000491;12;12;1
312;012-206-13;GRIST000252;12;12;1
313;012-207-00;GRIST000194;12;12;1
314;012-208-00;GRIST000013;12;12;1
315;012-208-01;GRIST000310;12;12;1
316;012-208-02;GRIST000054;12;12;1
317;012-208-03;GRIST000322;12;12;1
318;012-208-04;GRIST000066;12;12;1
319;012-208-05;GRIST000083;12;12;1
320;012-208-06;GRIST000416;12;12;1
321;012-208-07;GRIST000392;12;12;1
322;012-208-08;GRIST000486;12;12;0
323;012-208-09;GRIST000462;12;12;0
324;012-208-10;GRIST000240;12;12;1
325;012-208-11;GRIST000071;12;12;1
326;012-208-12;GRIST000206;12;12;1
327;012-208-13;GRIST000375;12;12;1
328;012-208-14;GRIST000223;12;12;1
329;012-208-15;GRIST000235;12;12;1
330;012-208-16;GRIST000474;12;12;1
331;012-208-18;GRIST000351;12;12;1
332;012-208-19;GRIST000165;12;12;1
333;012-208-20;GRIST000334;12;12;1
334;012-208-21;GRIST000346;12;12;1
335;012-209-00;GRIST000211;12;12;1
336;012-210-00;GRIST000264;12;12;1
337;012-212-00;GRIST000293;12;12;1
338;013-204-00;HGIST000106;13;13;1
339;013-204-01;HGIST000012;13;13;1
340;013-204-02;HGIST000024;13;13;1
341;013-204-03;HGIST000164;13;13;1
342;013-204-05;HGIST000070;13;13;1
343;013-204-06;HGIST000210;13;13;1
344;013-204-09;HGIST000304;13;13;1
345;013-204-13;HGIST000123;13;13;1
346;013-204-15;HGIST000152;13;13;1
347;013-204-16;HGIST000350;13;13;1
348;013-204-17;HGIST000251;13;13;1
349;013-204-18;HGIST000263;13;13;1
350;013-205-00;HGIST000065;13;13;1
351;013-205-03;HGIST000053;13;13;1
352;013-205-04;HGIST000205;13;13;1
353;013-205-05;HGIST000222;13;13;0
354;013-205-06;HGIST000234;13;13;1
355;013-205-08;HGIST000275;13;13;1
356;013-205-09;HGIST000280;13;13;1
357;013-205-10;HGIST000362;13;13;1
358;013-206-00;HGIST000140;13;13;1
359;013-206-02;HGIST000292;13;13;1
360;013-207-00;HGIST000041;13;13;1
361;013-207-01;HGIST000193;13;13;1
362;013-207-02;HGIST000246;13;13;1
363;013-207-03;HGIST000321;13;13;1
364;013-207-05;HGIST000176;13;13;1
365;013-207-06;HGIST000094;13;13;1
366;013-207-09;HGIST000345;13;13;1
367;013-207-12;HGIST000181;13;13;1
368;013-208-00;HGIST000082;13;13;1
369;013-208-01;HGIST000036;13;13;1
370;013-208-02;HGIST000111;13;13;1
371;013-208-03;HGIST000316;13;13;1
372;013-208-04;HGIST000333;13;13;1
373;013-208-05;HGIST000135;13;13;1
374;034-203-00;JCIST000132;14;14;1
375;014-204-00;JCIST000074;14;14;1
376;014-204-01;JCIST000161;14;14;1
377;014-204-02;JCIST000016;14;14;1
378;014-204-03;JCIST000272;14;14;1
379;014-204-04;JCIST000820;14;14;1
380;014-204-05;JCIST000511;14;14;1
381;014-204-06;JCIST000680;14;14;1
382;014-204-07;JCIST000342;14;14;1
383;014-204-08;JCIST000436;14;14;1
384;014-204-09;JCIST000144;14;14;1
385;014-204-10;JCIST000330;14;14;1
386;014-204-11;JCIST000441;14;14;1
387;014-204-12;JCIST000354;14;14;1
388;014-204-14;JCIST000185;14;14;1
389;014-204-15;JCIST000226;14;14;1
390;014-204-16;JCIST000540;14;14;1
391;014-204-17;JCIST000296;14;14;1
392;014-205-00;JCIST000366;14;14;1
393;014-205-02;JCIST000091;14;14;1
394;014-205-04;JCIST000050;14;14;1
395;014-205-05;JCIST000692;14;14;1
396;014-205-06;JCIST000523;14;14;1
397;014-205-09;JCIST000856;14;14;1
398;014-205-10;JCIST000371;14;14;1
399;014-205-11;JCIST000383;14;14;1
400;014-205-15;JCIST000156;14;14;1
401;014-205-16;JCIST000651;14;14;1
402;014-205-18;JCIST000552;14;14;0
403;014-205-19;JCIST000844;14;14;1
404;014-206-00;JCIST000395;14;14;1
405;014-206-01;JCIST000465;14;14;1
406;014-206-02;JCIST000301;14;14;1
407;014-206-03;JCIST000494;14;14;1
408;014-206-04;JCIST000033;14;14;1
409;014-206-05;JCIST000564;14;14;1
410;014-206-06;JCIST000861;14;14;1
411;014-206-07;JCIST000190;14;14;1
412;014-206-08;JCIST000115;14;14;1
413;014-206-09;JCIST000622;14;14;1
414;014-206-10;JCIST000786;14;14;1
415;014-206-11;JCIST000750;14;14;1
416;014-206-12;JCIST000733;14;14;1
417;014-206-13;JCIST000173;14;14;1
418;014-206-14;JCIST000202;14;14;1
419;014-206-15;JCIST000400;14;14;1
420;014-206-17;JCIST000593;14;14;1
421;014-206-18;JCIST000482;14;14;1
422;014-206-19;JCIST000832;14;14;1
423;014-206-21;JCIST000745;14;14;1
424;014-206-22;JCIST000774;14;14;1
425;014-206-23;JCIST000313;14;14;1
426;014-206-25;JCIST000412;14;14;0
427;014-206-27;JCIST000424;14;14;1
428;014-207-00;JCIST000506;14;14;1
429;014-207-01;JCIST000325;14;14;1
430;014-207-02;JCIST000470;14;14;1
431;014-207-03;JCIST000576;14;14;1
432;014-207-04;JCIST000634;14;14;1
433;014-207-05;JCIST000663;14;14;1
434;014-207-06;JCIST000103;14;14;1
435;014-207-07;JCIST000646;14;14;1
436;014-208-00;JCIST000045;14;14;1
437;014-208-01;JCIST000791;14;14;1
438;014-208-02;JCIST000721;14;14;1
439;014-208-03;JCIST000704;14;14;1
440;014-208-04;JCIST000535;14;14;1
441;014-208-05;JCIST000716;14;14;1
442;014-208-07;JCIST000581;14;14;0
443;014-208-08;JCIST000675;14;14;1
444;014-208-09;JCIST000815;14;14;1
445;014-209-00;JCIST000021;14;14;1
446;014-209-01;JCIST000214;14;14;1
447;014-209-02;JCIST000062;14;14;1
448;014-209-03;JCIST000453;14;14;1
449;014-209-04;JCIST000925;14;14;1
450;014-209-07;JCIST000255;14;14;1
451;014-209-12;JCIST000610;14;14;1
452;014-209-13;JCIST000260;14;14;1
453;014-209-14;JCIST000243;14;14;1
454;014-209-15;JCIST000284;14;14;1
455;014-210-00;JCIST000086;14;14;1
456;014-210-01;JCIST000120;14;14;1
457;014-210-02;JCIST000762;14;14;1
458;014-210-04;JCIST000231;14;14;1
459;014-210-05;JCIST000605;14;14;1
460;015-204-00;MCIST000215;15;15;1
461;015-213-01;MCIST000261;15;15;0
462;015-213-02;MCIST000034;15;15;1
463;015-213-03;MCIST000290;15;15;1
464;015-213-04;MCIST000080;15;15;1
465;015-213-05;MCIST000092;15;15;1
466;015-213-06;MCIST000162;15;15;1
467;015-213-07;MCIST000314;15;15;1
468;015-213-08;MCIST000133;15;15;1
469;015-213-09;MCIST000145;15;15;1
470;015-213-10;MCIST000191;15;15;1
471;015-213-11;MCIST000273;15;15;1
472;015-213-12;MCIST000150;15;15;1
473;015-213-13;MCIST000413;15;15;1
474;015-213-14;MCIST000302;15;15;0
475;015-213-15;MCIST000430;15;15;0
476;015-213-16;MCIST000104;15;15;1
477;015-213-17;MCIST000256;15;15;1
478;015-213-18;MCIST000121;15;15;1
479;015-213-19;MCIST000046;15;15;1
480;015-213-20;MCIST000244;15;15;1
481;015-213-21;;15;15;0
482;015-213-22;MCIST000285;15;15;0
483;015-205-00;MCIST000075;15;15;1
484;015-205-01;MCIST000174;15;15;1
485;015-205-02;MCIST000220;15;15;1
486;015-205-03;MCIST000010;15;15;1
487;015-205-04;MCIST000396;15;15;1
488;015-205-05;MCIST000372;15;15;1
489;015-206-00;MCIST000116;15;15;1
490;015-207-00;MCIST000355;15;15;1
491;015-208-00;MCIST000203;15;15;1
492;015-208-01;MCIST000360;15;15;0
493;015-208-02;;15;15;0
494;015-208-03;MCIST000331;15;15;0
495;015-208-04;MCIST000343;15;15;0
496;015-208-05;MCIST000326;15;15;0
497;015-214-00;MCIST000384;15;15;1
498;015-210-00;MCIST000186;15;15;1
499;015-210-01;MCIST000022;15;15;1
500;015-210-02;MCIST000051;15;15;1
501;015-211-00;MCIST000063;15;15;1
502;016-204-00;MNIST000120;16;16;0
503;016-205-00;MNIST000202;16;16;1
504;016-205-02;MNIST000366;16;16;1
505;016-205-05;MNIST000552;16;16;1
506;016-205-06;MNIST000330;16;16;1
507;016-205-07;MNIST000441;16;16;1
508;016-205-08;MNIST000465;16;16;1
509;016-206-00;MNIST000016;16;16;1
510;016-206-01;MNIST000243;16;16;1
511;016-206-02;MNIST000284;16;16;1
512;016-206-03;MNIST000540;16;16;1
513;016-206-04;MNIST000132;16;16;1
514;016-206-07;MNIST000062;16;16;1
515;016-207-00;MNIST000156;16;16;1
516;016-207-01;MNIST000255;16;16;1
517;016-207-02;MNIST000675;16;16;1
518;016-207-03;MNIST000470;16;16;1
519;016-207-04;MNIST000535;16;16;1
520;016-207-05;MNIST000646;16;16;1
521;016-207-06;MNIST000651;16;16;0
522;016-208-00;MNIST000231;16;16;1
523;016-208-01;MNIST000260;16;16;1
524;016-208-02;MNIST000272;16;16;1
525;016-210-08;MNIST000074;16;16;1
526;016-208-04;MNIST000400;16;16;0
527;016-208-06;MNIST000610;16;16;1
528;016-208-07;MNIST000605;16;16;1
529;016-208-08;MNIST000564;16;16;1
530;016-208-09;MNIST000050;16;16;1
531;016-209-00;MNIST000226;16;16;1
532;016-209-01;MNIST000325;16;16;1
533;016-209-02;MNIST000045;16;16;1
534;016-209-03;MNIST000395;16;16;1
535;016-209-04;MNIST000173;16;16;1
536;016-209-05;MNIST000482;16;16;1
537;016-209-06;MNIST000523;16;16;1
538;016-209-07;MNIST000634;16;16;1
539;016-210-00;MNIST000144;16;16;1
540;016-210-01;MNIST000342;16;16;1
541;016-210-03;MNIST000506;16;16;1
542;016-210-04;MNIST000593;16;16;1
543;016-210-05;MNIST000511;16;16;1
544;016-210-06;MNIST000190;16;16;1
545;016-210-07;MNIST000021;16;16;1
546;016-211-00;MNIST000185;16;16;1
547;016-211-01;MNIST000086;16;16;1
548;016-211-02;MNIST000453;16;16;1
549;016-211-03;MNIST000412;16;16;1
550;016-211-04;MNIST000622;16;16;1
551;016-212-00;MNIST000103;16;16;1
552;016-212-01;MNIST000033;16;16;1
553;016-212-02;MNIST000296;16;16;1
554;016-212-03;MNIST000581;16;16;0
555;016-212-04;MNIST000115;16;16;1
556;016-213-00;MNIST000214;16;16;1
557;016-213-01;MNIST000301;16;16;1
558;016-213-02;MNIST000383;16;16;1
559;016-214-00;MNIST000424;16;16;1
560;016-214-01;MNIST000313;16;16;1
561;016-214-02;MNIST000091;16;16;1
562;016-214-03;MNIST000161;16;16;1
563;016-214-04;MNIST000494;16;16;1
564;016-214-05;MNIST000576;16;16;1
565;016-214-06;MNIST000436;16;16;1
566;016-214-08;MNIST000663;16;16;1
567;016-214-09;MNIST000354;16;16;1
568;016-214-10;MNIST000371;16;16;1
569;017-204-00;MSIST000042;17;17;0
570;017-205-00;MSIST000025;17;17;1
571;017-205-01;MSIST000071;17;17;1
572;017-205-02;MSIST000211;17;17;1
573;017-205-03;MSIST000252;17;17;1
574;017-205-04;MSIST000141;17;17;1
575;017-205-05;MSIST000112;17;17;1
576;017-205-06;MSIST000276;17;17;1
577;017-205-07;MSIST000281;17;17;1
578;017-205-08;MSIST000235;17;17;1
579;017-205-09;MSIST000136;17;17;1
580;017-206-00;MSIST000030;17;17;1
581;017-206-01;MSIST000013;17;17;0
582;017-206-02;MSIST000165;17;17;1
583;017-206-03;MSIST000182;17;17;1
584;017-206-06;MSIST000194;17;17;1
585;017-206-07;MSIST000153;17;17;1
586;017-206-08;MSIST000083;17;17;1
587;017-206-09;MSIST000223;17;17;1
588;017-206-10;MSIST000095;17;17;1
589;017-206-11;MSIST000100;17;17;0
590;017-206-12;MSIST000240;17;17;0
591;017-206-13;MSIST000170;17;17;1
592;017-206-14;MSIST000264;17;17;1
593;017-206-15;MSIST000206;17;17;0
594;017-206-16;MSIST000124;17;17;0
596;017-208-00;MSIST000054;17;17;1
597;018-204-00;NTIST000120;18;18;1
598;018-205-00;NTIST000016;18;18;1
599;018-205-01;NTIST000231;18;18;1
600;018-205-02;NTIST000255;18;18;1
601;018-205-03;NTIST000086;18;18;1
602;018-205-04;NTIST000173;18;18;1
603;018-205-05;NTIST000115;18;18;1
604;018-205-06;NTIST000132;18;18;1
605;018-205-07;NTIST000161;18;18;1
606;018-206-00;NTIST000243;18;18;1
607;018-206-01;NTIST000021;18;18;1
608;018-206-02;NTIST000156;18;18;1
609;018-206-03;NTIST000033;18;18;1
610;018-206-04;NTIST000062;18;18;1
611;018-206-06;NTIST000050;18;18;1
612;018-206-07;NTIST000074;18;18;1
613;018-206-08;NTIST000202;18;18;1
614;018-206-09;NTIST000045;18;18;1
615;018-206-10;NTIST000144;18;18;1
616;018-206-11;NTIST000226;18;18;1
617;018-206-12;NTIST000091;18;18;1
618;018-206-13;NTIST000103;18;18;1
619;018-206-14;NTIST000185;18;18;0
620;018-206-15;NTIST000190;18;18;0
621;018-206-16;NTIST000214;18;18;1
622;035-203-00;NLIST000105;19;19;1
623;019-204-00;NLIST000093;19;19;1
624;019-204-01;NLIST000233;19;19;1
625;019-204-02;NLIST000315;19;19;1
626;019-204-03;NLIST000146;19;19;1
627;019-204-04;NLIST000023;19;19;1
628;019-204-05;NLIST000011;19;19;1
629;019-204-06;NLIST000216;19;19;0
630;019-204-07;NLIST000035;19;19;1
631;019-204-08;NLIST000040;19;19;1
632;019-204-09;NLIST000064;19;19;1
633;019-204-10;NLIST000320;19;19;1
634;019-204-11;;19;19;0
635;019-204-12;NLIST000262;19;19;1
636;019-204-13;NLIST000245;19;19;1
637;019-204-14;NLIST000303;19;19;1
638;019-204-16;NLIST000081;19;19;1
639;019-204-17;NLIST000274;19;19;1
640;019-204-18;NLIST000180;19;19;1
641;019-204-19;NLIST000110;19;19;1
642;019-204-20;;19;19;0
643;019-204-23;NLIST000122;19;19;1
644;019-204-24;NLIST000361;19;19;1
645;019-204-25;NLIST000332;19;19;1
646;019-204-26;NLIST000163;19;19;1
647;019-204-27;NLIST000052;19;19;1
648;019-204-29;NLIST000175;19;19;1
649;019-204-30;;19;19;0
650;019-204-31;NLIST000250;19;19;1
651;019-204-32;NLIST000151;19;19;1
652;019-205-00;NLIST000076;19;19;1
653;019-204-28;NLIST000356;19;19;0
654;039-203-00;OCIST000112;20;20;1
655;020-204-00;OCIST000136;20;20;1
656;020-204-01;OCIST000025;20;20;1
657;020-204-02;OCIST000066;20;20;1
658;020-204-03;OCIST000585;20;20;1
659;020-204-04;OCIST000544;20;20;1
660;020-204-05;OCIST000515;20;20;1
661;020-204-06;OCIST000322;20;20;1
662;020-205-00;OCIST000252;20;20;1
663;020-205-01;OCIST000083;20;20;1
664;020-205-02;OCIST000211;20;20;1
665;020-205-03;OCIST000141;20;20;1
666;020-205-04;OCIST000392;20;20;1
667;020-205-05;OCIST000346;20;20;1
668;020-206-00;OCIST000165;20;20;1
669;020-206-01;OCIST000305;20;20;1
670;020-206-02;OCIST000071;20;20;1
671;020-206-04;OCIST000170;20;20;1
672;020-206-05;OCIST000182;20;20;1
673;020-206-06;OCIST000590;20;20;1
674;020-206-07;OCIST000421;20;20;1
675;020-206-08;OCIST000380;20;20;1
676;020-207-00;OCIST000042;20;20;1
677;020-207-01;OCIST000310;20;20;1
678;020-207-02;OCIST000532;20;20;1
679;020-207-03;OCIST000334;20;20;1
680;020-207-05;OCIST000264;20;20;1
681;020-207-06;OCIST000276;20;20;1
682;020-207-07;OCIST000235;20;20;0
683;020-207-08;OCIST000124;20;20;1
684;020-205-06;OCIST000556;20;20;1
685;020-207-10;;20;20;0
686;020-208-00;OCIST000462;20;20;1
687;020-208-02;OCIST000206;20;20;1
688;020-208-03;OCIST000474;20;20;1
689;020-208-04;OCIST000223;20;20;1
690;020-208-05;OCIST000486;20;20;1
691;020-210-01;OCIST000416;20;20;0
692;020-210-02;OCIST000520;20;20;0
693;020-210-03;OCIST000375;20;20;0
694;020-208-09;OCIST000491;20;20;1
695;020-208-10;OCIST000561;20;20;1
696;020-210-04;;20;20;0
697;020-208-12;OCIST000503;20;20;1
698;020-209-00;OCIST000100;20;20;1
699;020-209-01;OCIST000351;20;20;1
700;020-209-02;OCIST000404;20;20;1
701;020-209-03;OCIST000433;20;20;1
702;020-209-04;OCIST000030;20;20;1
703;020-209-05;OCIST000054;20;20;1
704;020-209-06;OCIST000095;20;20;1
705;020-209-07;OCIST000363;20;20;1
706;020-209-08;OCIST000450;20;20;1
707;020-209-09;OCIST000445;20;20;0
708;020-209-10;OCIST000281;20;20;1
709;020-209-11;OCIST000153;20;20;1
710;020-209-12;OCIST000573;20;20;1
711;020-209-13;;20;20;0
712;020-209-14;OCIST000013;20;20;1
713;020-209-15;;20;20;0
714;020-210-00;OCIST000240;20;20;1
715;036-203-00;PLIST000101;21;21;1
716;021-205-00;PLIST000014;21;21;1
717;021-206-00;PLIST000026;21;21;1
718;021-206-01;PLIST000253;21;21;1
719;021-206-02;PLIST000241;21;21;1
720;021-206-03;PLIST000096;21;21;1
721;021-207-00;PLIST000072;21;21;1
722;021-207-01;PLIST000311;21;21;1
723;021-207-02;PLIST000195;21;21;1
724;021-207-03;PLIST000055;21;21;1
725;021-207-04;PLIST000393;21;21;1
726;021-207-05;PLIST000200;21;21;1
727;021-207-06;PLIST000265;21;21;1
728;021-207-07;PLIST000405;21;21;0
729;021-208-00;PLIST000154;21;21;1
730;021-208-01;PLIST000043;21;21;1
731;021-208-02;PLIST000060;21;21;1
732;021-208-04;PLIST000236;21;21;1
733;021-208-05;PLIST000270;21;21;1
734;021-209-00;PLIST000125;21;21;1
735;021-209-01;PLIST000282;21;21;1
736;021-210-00;PLIST000171;21;21;1
737;021-210-01;PLIST000031;21;21;1
738;021-210-02;PLIST000294;21;21;1
739;021-210-04;PLIST000183;21;21;1
740;021-210-05;PLIST000410;21;21;0
741;021-210-06;PLIST000422;21;21;1
742;021-210-07;PLIST000460;21;21;1
743;021-210-08;PLIST000434;21;21;1
744;021-214-00;PLIST000212;21;21;1
745;021-214-04;PLIST000381;21;21;1
746;021-214-05;PLIST000306;21;21;1
747;021-214-06;PLIST000084;21;21;1
748;021-214-07;PLIST000142;21;21;1
749;021-214-08;PLIST000166;21;21;1
750;021-214-11;PLIST000224;21;21;1
751;021-214-12;PLIST000130;21;21;1
752;021-214-13;PLIST000113;21;21;1
753;021-214-14;PLIST000323;21;21;1
754;021-214-15;PLIST000335;21;21;1
755;021-214-16;PLIST000340;21;21;1
756;021-214-17;PLIST000352;21;21;1
757;021-214-27;PLIST000364;21;21;1
758;021-214-28;PLIST000376;21;21;1
759;022-206-00;QTIST000046;22;22;0
760;022-205-00;QTIST000051;22;22;1
761;022-205-02;;22;22;0
762;022-205-03;QTIST000010;22;22;1
763;022-205-04;QTIST000116;22;22;0
764;022-205-05;QTIST000022;22;22;1
765;022-205-06;QTIST000121;22;22;1
766;022-205-07;QTIST000133;22;22;1
767;022-205-08;QTIST000034;22;22;1
769;022-205-11;QTIST000104;22;22;0
771;022-205-13;QTIST000150;22;22;1
772;022-205-14;QTIST000092;22;22;1
773;022-205-15;QTIST000080;22;22;1
774;022-205-16;QTIST000145;22;22;1
776;022-205-18;QTIST000063;22;22;1
777;022-205-19;QTIST000075;22;22;1
778;023-204-00;QRIST000043;23;23;1
779;023-204-01;QRIST000026;23;23;1
780;023-204-02;QRIST000060;23;23;1
781;023-204-03;QRIST000096;23;23;1
782;023-205-00;QRIST000055;23;23;1
783;023-205-01;QRIST000072;23;23;1
784;023-205-02;QRIST000031;23;23;1
785;023-205-03;QRIST000101;23;23;1
786;023-206-00;QRIST000014;23;23;1
787;024-204-00;SPIST000113;24;24;1
788;024-205-00;SPIST000055;24;24;1
789;024-205-02;SPIST000072;24;24;1
790;024-205-03;SPIST000282;24;24;1
791;024-205-04;SPIST000154;24;24;1
792;024-205-05;SPIST000183;24;24;1
793;024-208-01;SPIST000171;24;24;1
794;024-209-01;SPIST000014;24;24;1
795;024-205-10;SPIST000043;24;24;1
796;024-205-11;SPIST000294;24;24;1
797;024-208-02;SPIST000253;24;24;1
798;024-208-03;SPIST000306;24;24;1
799;024-206-00;SPIST000212;24;24;1
800;024-206-01;SPIST000130;24;24;1
801;024-209-02;SPIST000031;24;24;1
802;024-206-03;SPIST000026;24;24;1
803;024-206-04;SPIST000060;24;24;1
804;024-206-05;SPIST000101;24;24;1
805;024-209-03;SPIST000200;24;24;1
806;024-206-07;SPIST000166;24;24;1
807;024-206-09;SPIST000270;24;24;1
808;024-209-00;SPIST000096;24;24;1
809;024-206-12;SPIST000224;24;24;1
810;024-205-14;SPIST000311;24;24;1
811;024-206-14;SPIST000265;24;24;1
812;024-206-15;SPIST000236;24;24;1
813;024-206-16;SPIST000241;24;24;1
814;024-207-00;SPIST000084;24;24;1
815;024-208-00;SPIST000142;24;24;1
816;033-203-00;SLIST000085;25;25;1
817;025-204-00;SLIST000196;25;25;1
818;025-204-01;SLIST000056;25;25;1
819;025-204-03;SLIST000225;25;25;1
820;025-204-04;SLIST000131;25;25;1
821;025-204-05;SLIST000242;25;25;1
822;025-204-07;SLIST000201;25;25;1
823;025-205-00;SLIST000015;25;25;1
824;025-205-01;SLIST000020;25;25;1
825;025-205-02;SLIST000382;25;25;1
826;025-205-03;SLIST000172;25;25;1
827;025-205-04;SLIST000114;25;25;1
828;025-205-05;SLIST000283;25;25;1
829;025-205-06;SLIST000143;25;25;1
830;025-205-07;SLIST000370;25;25;1
831;025-205-08;SLIST000160;25;25;1
832;025-205-09;SLIST000295;25;25;1
833;025-205-10;SLIST000184;25;25;1
834;025-205-11;SLIST000353;25;25;1
835;025-205-12;SLIST000155;25;25;1
836;025-205-13;SLIST000254;25;25;1
837;025-205-14;SLIST000266;25;25;1
838;025-206-00;SLIST000073;25;25;1
839;025-206-01;SLIST000032;25;25;1
840;025-206-02;SLIST000044;25;25;1
841;025-206-03;SLIST000061;25;25;1
842;025-206-04;SLIST000102;25;25;1
843;025-206-05;SLIST000230;25;25;1
844;025-206-06;SLIST000126;25;25;1
845;025-206-07;SLIST000213;25;25;1
846;025-206-08;SLIST000271;25;25;1
847;025-206-09;SLIST000365;25;25;1
848;025-206-10;SLIST000336;25;25;1
849;025-206-11;SLIST000341;25;25;1
850;025-206-12;SLIST000312;25;25;1
851;025-206-13;SLIST000300;25;25;1
852;025-206-14;SLIST000324;25;25;1
853;025-206-15;SLIST000090;25;25;1
854;026-204-00;SRIST000133;26;26;1
855;026-205-00;SRIST000046;26;26;1
856;026-205-01;SRIST000051;26;26;1
857;026-205-02;SRIST000116;26;26;1
858;026-205-03;SRIST000080;26;26;1
859;026-205-04;SRIST000261;26;26;1
860;026-205-05;SRIST000273;26;26;1
861;026-205-06;SRIST000401;26;26;1
862;026-206-00;SRIST000162;26;26;1
863;026-206-01;SRIST000022;26;26;1
864;026-206-02;SRIST000092;26;26;1
865;026-206-03;SRIST000145;26;26;1
866;026-206-04;SRIST000302;26;26;1
867;026-206-05;SRIST000343;26;26;1
868;026-215-00;SRIST000174;26;26;0
869;026-215-01;SRIST000034;26;26;1
870;026-215-02;SRIST000244;26;26;1
871;026-215-03;SRIST000215;26;26;1
872;026-215-04;SRIST000355;26;26;1
873;026-215-06;SRIST000010;26;26;1
874;026-215-07;SRIST000372;26;26;1
875;026-215-08;SRIST000384;26;26;0
876;026-215-09;SRIST000063;26;26;1
877;026-215-10;SRIST000314;26;26;1
878;026-208-00;SRIST000104;26;26;1
879;026-208-01;SRIST000075;26;26;1
880;026-211-00;SRIST000203;26;26;1
881;026-211-01;SRIST000186;26;26;1
882;026-211-02;SRIST000232;26;26;1
883;026-212-00;SRIST000121;26;26;1
884;026-212-01;SRIST000256;26;26;1
885;026-212-02;SRIST000285;26;26;1
886;026-212-03;SRIST000290;26;26;1
887;026-212-04;SRIST000150;26;26;1
888;026-212-05;SRIST000220;26;26;1
889;026-212-06;SRIST000191;26;26;1
890;026-212-07;SRIST000326;26;26;1
891;026-212-08;SRIST000331;26;26;1
892;026-212-09;SRIST000396;26;26;0
893;026-212-10;SRIST000360;26;26;1
894;027-204-00;TCIST000063;27;27;1
895;027-205-00;TCIST000034;27;27;1
896;027-206-00;TCIST000186;27;27;1
897;027-206-01;TCIST000010;27;27;1
898;027-206-02;TCIST000075;27;27;1
899;027-206-03;TCIST000080;27;27;1
900;027-206-04;TCIST000092;27;27;1
901;027-206-05;TCIST000051;27;27;1
902;027-206-06;TCIST000104;27;27;1
903;027-206-07;TCIST000116;27;27;1
904;027-206-08;TCIST000121;27;27;1
905;027-206-09;TCIST000145;27;27;1
906;027-206-10;TCIST000162;27;27;1
907;027-206-11;TCIST000174;27;27;1
908;027-206-12;TCIST000046;27;27;1
909;027-206-13;TCIST000133;27;27;1
910;027-206-14;TCIST000191;27;27;0
911;027-206-15;TCIST000150;27;27;1
912;027-206-16;TCIST000232;27;27;0
913;027-206-17;TCIST000244;27;27;1
914;027-206-18;TCIST000022;27;27;1
915;027-206-19;TCIST000256;27;27;1
916;027-206-20;TCIST000261;27;27;1
917;027-206-21;TCIST000220;27;27;0
918;027-206-22;TCIST000215;27;27;1
919;027-206-23;TCIST000203;27;27;1
920;028-204-00;TSIST000153;28;28;1
921;028-204-01;TSIST000013;28;28;1
922;028-204-02;TSIST000310;28;28;1
923;028-204-03;TSIST000252;28;28;1
924;028-204-04;TSIST000264;28;28;1
925;028-204-05;TSIST000240;28;28;1
926;028-204-06;TSIST000042;28;28;1
927;028-204-08;TSIST000305;28;28;1
928;028-204-09;TSIST000322;28;28;1
929;028-204-10;TSIST000334;28;28;1
930;028-204-12;TSIST000124;28;28;1
931;028-205-00;TSIST000182;28;28;1
932;028-206-00;TSIST000100;28;28;1
933;028-206-01;TSIST000025;28;28;1
934;028-206-02;TSIST000235;28;28;1
935;028-206-04;TSIST000083;28;28;1
936;028-206-05;TSIST000281;28;28;1
937;028-207-00;TSIST000071;28;28;1
938;028-207-01;TSIST000276;28;28;1
939;028-207-02;TSIST000141;28;28;1
940;028-207-03;TSIST000112;28;28;1
941;028-208-00;TSIST000095;28;28;1
942;028-208-01;TSIST000223;28;28;1
943;028-209-00;TSIST000170;28;28;1
944;028-210-00;TSIST000054;28;28;1
945;028-210-01;TSIST000066;28;28;1
946;028-210-02;TSIST000293;28;28;1
947;028-210-03;TSIST000030;28;28;1
948;028-210-04;TSIST000165;28;28;1
949;028-211-00;TSIST000136;28;28;1
950;028-211-01;TSIST000194;28;28;1
951;028-211-02;TSIST000211;28;28;1
952;028-211-03;TSIST000206;28;28;1
953;029-204-00;TLIST000042;29;29;1
954;029-204-01;TLIST000013;29;29;1
955;029-204-02;TLIST000025;29;29;1
956;029-204-03;TLIST000030;29;29;1
957;030-204-00;VZIST000120;30;30;1
958;030-204-01;VZIST000050;30;30;1
959;030-204-02;VZIST000202;30;30;1
960;030-204-03;VZIST000470;30;30;1
961;030-204-04;VZIST000593;30;30;1
962;030-204-06;VZIST000540;30;30;1
963;030-204-07;VZIST000552;30;30;1
964;030-204-08;VZIST000564;30;30;1
965;030-204-09;VZIST000576;30;30;1
966;030-204-10;VZIST000330;30;30;1
967;030-204-11;VZIST000354;30;30;1
968;030-205-00;VZIST000301;30;30;0
969;030-223-01;VZIST000021;30;30;1
970;030-223-02;VZIST000441;30;30;1
971;030-223-03;VZIST000762;30;30;1
972;030-223-04;VZIST000704;30;30;1
973;030-223-05;VZIST000750;30;30;1
974;030-223-06;VZIST000033;30;30;1
975;030-223-07;VZIST000786;30;30;1
976;030-223-08;VZIST000610;30;30;1
977;030-223-10;VZIST000803;30;30;1
978;030-223-11;VZIST000815;30;30;1
979;030-223-12;VZIST000371;30;30;1
980;030-206-00;VZIST000424;30;30;1
981;030-206-01;VZIST000506;30;30;1
982;030-206-02;VZIST000733;30;30;1
983;030-206-04;VZIST000663;30;30;1
984;030-206-05;VZIST000272;30;30;1
985;030-207-00;VZIST000173;30;30;1
986;030-207-01;VZIST000634;30;30;1
987;030-207-02;VZIST000313;30;30;1
988;030-207-03;VZIST000383;30;30;1
989;030-208-00;VZIST000296;30;30;1
990;030-208-01;VZIST000716;30;30;1
991;030-208-02;VZIST000774;30;30;1
992;030-208-03;VZIST000255;30;30;1
993;030-208-04;VZIST000366;30;30;1
994;030-208-05;VZIST000091;30;30;1
995;030-208-06;VZIST000675;30;30;1
996;030-208-07;VZIST000721;30;30;1
997;030-208-08;VZIST000045;30;30;1
998;030-208-09;VZIST000864;30;30;1
999;030-208-10;VZIST000646;30;30;1
1000;030-208-11;VZIST000185;30;30;1
1001;030-208-12;VZIST000844;30;30;1
1002;030-208-13;VZIST000680;30;30;1
1003;030-209-00;VZIST000226;30;30;1
1004;030-209-01;VZIST000651;30;30;1
1005;030-209-02;VZIST000400;30;30;1
1006;030-209-03;VZIST000453;30;30;1
1007;030-209-04;VZIST000482;30;30;1
1008;030-209-05;VZIST000103;30;30;1
1009;030-209-06;VZIST000115;30;30;1
1010;030-209-07;VZIST000535;30;30;1
1011;030-209-09;VZIST000190;30;30;1
1012;030-209-10;VZIST000745;30;30;1
1013;030-209-11;VZIST000086;30;30;1
1014;030-209-12;VZIST000074;30;30;1
1015;030-210-00;VZIST000062;30;30;1
1016;030-210-01;VZIST000832;30;30;1
1017;030-210-02;VZIST000412;30;30;1
1018;030-210-03;VZIST000465;30;30;1
1019;030-213-00;VZIST000231;30;30;1
1020;030-213-01;VZIST000395;30;30;1
1021;030-213-02;VZIST000511;30;30;1
1022;030-213-03;VZIST000605;30;30;1
1023;030-213-04;VZIST000132;30;30;1
1024;030-213-05;VZIST000214;30;30;1
1025;030-213-06;VZIST000243;30;30;1
1026;030-213-07;VZIST000260;30;30;1
1027;030-213-08;VZIST000523;30;30;1
1028;030-214-00;VZIST000156;30;30;1
1029;030-214-01;VZIST000436;30;30;1
1030;030-214-02;VZIST000494;30;30;1
1031;030-214-03;VZIST000581;30;30;1
1032;030-214-04;VZIST000856;30;30;1
1033;030-216-00;VZIST000144;30;30;1
1034;030-216-03;VZIST000161;30;30;1
1035;030-216-04;VZIST000622;30;30;1
1036;030-216-05;VZIST000284;30;30;1
1037;030-216-06;VZIST000791;30;30;1
1038;030-220-00;VZIST000016;30;30;1
1039;030-220-03;VZIST000325;30;30;1
1040;030-220-04;VZIST000692;30;30;1
1041;038-203-00;YNIST000030;31;31;1
1042;031-201-00;YNIST000112;31;31;1
1043;031-201-01;YNIST000136;31;31;1
1044;031-201-02;YNIST000071;31;31;1
1045;031-201-03;YNIST000013;31;31;1
1046;031-201-05;YNIST000025;31;31;1
1047;031-201-06;YNIST000124;31;31;1
1048;031-201-07;YNIST000042;31;31;1
1049;031-201-08;YNIST000141;31;31;1
1050;031-201-09;YNIST000054;31;31;1
1051;031-201-10;YNIST000066;31;31;1
1052;031-201-11;YNIST000083;31;31;1
1053;031-201-12;YNIST000095;31;31;1
1054;031-201-13;YNIST000165;31;31;1
1055;031-201-14;YNIST000153;31;31;1
1056;031-201-15;YNIST000100;31;31;1
1057;032-204-00;ZSIST000160;32;32;1
1058;032-204-02;ZSIST000015;32;32;1
1059;032-204-04;ZSIST000020;32;32;1
1061;032-204-08;ZSIST000196;32;32;1
1062;032-204-09;ZSIST000056;32;32;1
1063;032-204-10;ZSIST000061;32;32;1
1064;032-204-12;ZSIST000085;32;32;1
1065;032-204-13;ZSIST000090;32;32;1
1066;032-204-14;ZSIST000201;32;32;1
1067;032-204-15;ZSIST000213;32;32;1
1068;032-204-17;ZSIST000102;32;32;1
1069;032-204-18;ZSIST000114;32;32;1
1070;032-204-22;ZSIST000225;32;32;1
1071;032-204-23;ZSIST000230;32;32;1
1072;032-204-24;ZSIST000143;32;32;1
1073;032-204-25;ZSIST000184;32;32;1
1074;032-204-27;ZSIST000242;32;32;1
1075;032-204-28;ZSIST000254;32;32;0
1076;032-204-29;ZSIST000324;32;32;1
1077;032-204-33;ZSIST000266;32;32;1
1078;032-204-34;ZSIST000353;32;32;1
1079;032-204-37;ZSIST000336;32;32;0
1080;032-204-39;ZSIST000341;32;32;0
1081;032-204-40;ZSIST000271;32;32;1
1082;032-205-00;ZSIST000032;32;32;1
1083;032-205-01;ZSIST000283;32;32;1
1084;032-205-03;ZSIST000295;32;32;0
1085;032-205-06;ZSIST000300;32;32;1
1086;032-205-11;ZSIST000073;32;32;1
1087;032-205-16;ZSIST000312;32;32;1
1088;032-205-19;ZSIST000126;32;32;1
1089;032-205-20;ZSIST000365;32;32;1
1090;032-205-21;ZSIST000131;32;32;1
1091;032-205-26;ZSIST000155;32;32;1
1092;032-206-00;ZSIST000044;32;32;1
1093;090-201-00;DFIST000090;9;9;1
1094;091-204-00;DFIST000476;9;9;0
1095;091-205-00;DFIST000073;9;9;1
1096;091-205-01;DFIST000621;9;9;1
1097;091-206-00;DFIST000085;9;9;1
1098;091-206-01;DFIST000633;9;9;1
1099;091-206-02;DFIST000645;9;9;1
1100;091-207-00;DFIST000370;9;9;1
1101;091-208-00;DFIST000102;9;9;1
1102;091-209-00;DFIST000481;9;9;1
1103;091-210-00;DFIST000341;9;9;1
1104;091-211-00;DFIST000382;9;9;1
1105;091-211-02;DFIST000761;9;9;1
1106;091-212-00;DFIST000394;9;9;1
1107;091-212-02;DFIST000773;9;9;0
1108;091-212-03;DFIST000785;9;9;1
1109;091-212-04;DFIST000790;9;9;1
1110;091-212-05;DFIST000802;9;9;1
1111;091-212-06;DFIST000814;9;9;0
1112;091-213-00;DFIST000406;9;9;1
1113;091-214-00;DFIST000411;9;9;1
1114;091-214-01;DFIST000826;9;9;0
1115;091-214-02;DFIST000831;9;9;1
1116;091-214-04;DFIST000983;9;9;1
1117;091-214-05;DFIST000843;9;9;1
1118;091-215-00;DFIST000464;9;9;0
1119;091-216-00;DFIST000423;9;9;1
1120;091-216-01;DFIST000855;9;9;1
1121;091-217-00;DFIST000435;9;9;1
1122;091-217-01;DFIST000336;9;9;1
1123;091-217-02;DFIST000860;9;9;1
1124;091-217-03;DFIST000872;9;9;1
1125;091-217-04;DFIST000884;9;9;1
1126;091-217-05;DFIST000896;9;9;1
1127;091-217-06;DFIST000901;9;9;1
1128;091-218-00;DFIST000440;9;9;1
1130;091-218-02;DFIST000913;9;9;1
1131;091-218-03;DFIST000925;9;9;1
1132;091-218-04;DFIST000930;9;9;1
1133;091-218-05;DFIST000942;9;9;1
1134;091-218-06;DFIST000995;9;9;1
1135;091-219-00;DFIST000452;9;9;1
1136;091-219-01;DFIST000954;9;9;1
1137;091-219-06;DFIST000966;9;9;0
1138;091-219-07;;9;9;0
1139;091-219-08;;9;9;0
1140;091-220-00;DFIST000353;9;9;1
1141;091-221-00;DFIST000365;9;9;1
1142;097-201-00;DFIST000160;33;9;1
1143;092-204-00;DFIST000546;33;9;1
1145;092-205-00;DFIST000551;33;9;1
1146;092-206-00;DFIST000114;33;9;1
1148;092-207-00;DFIST000563;33;9;1
1152;092-208-00;;33;9;0
1153;092-209-00;DFIST000126;33;9;1
1155;092-210-00;DFIST000155;33;9;1
1156;092-211-00;DFIST000131;33;9;1
1157;092-212-00;DFIST000143;33;9;1
1158;096-201-00;DFIST000312;35;9;1
1159;098-201-00;DFIST000201;35;9;1
1160;093-204-00;DFIST000686;35;9;1
1161;093-205-00;DFIST000271;35;9;1
1162;093-206-00;DFIST000283;35;9;1
1163;093-206-01;DFIST000715;35;9;1
1164;093-206-02;DFIST000720;35;9;1
1165;093-206-03;DFIST000732;35;9;0
1166;093-206-04;DFIST000744;35;9;0
1167;093-207-00;DFIST000032;35;9;1
1168;093-208-00;DFIST000044;35;9;1
1169;093-208-01;DFIST000580;35;9;1
1170;093-209-00;DFIST000230;35;9;1
1171;093-209-01;DFIST000225;35;9;1
1172;093-209-02;DFIST000691;35;9;1
1173;093-209-04;;35;9;0
1174;093-210-00;DFIST000056;35;9;1
1175;093-211-00;DFIST000295;35;9;1
1176;093-212-00;DFIST000061;35;9;1
1177;093-212-01;DFIST000756;35;9;1
1178;093-212-03;DFIST000592;35;9;1
1179;093-213-00;DFIST000254;35;9;1
1180;093-213-02;DFIST000703;35;9;0
1181;093-214-00;DFIST000172;35;9;1
1182;093-215-00;DFIST000324;35;9;1
1183;093-217-00;DFIST000242;35;9;1
1184;093-218-00;DFIST000213;35;9;1
1185;093-219-00;DFIST000184;35;9;1
1186;093-219-01;DFIST000662;35;9;1
1187;094-204-00;DFIST000015;34;9;1
1188;094-204-01;DFIST000575;34;9;1
1189;094-205-00;DFIST000196;34;9;1
1190;094-206-00;DFIST000505;34;9;1
1191;094-206-01;DFIST001000;34;9;1
1192;094-207-00;DFIST000020;34;9;1
1193;094-207-01;;34;9;0
1194;094-208-00;DFIST000510;34;9;1
1195;094-209-00;DFIST000534;34;9;1
1196;094-211-00;DFIST000493;34;9;1
1197;094-212-00;DFIST000522;34;9;1
1198;094-212-01;DFIST000604;34;9;0
1199;094-212-02;;34;9;0
1200;094-212-03;DFIST000674;34;9;0
1201;094-212-04;;34;9;0
1202;094-212-05;DFIST000616;34;9;1
1203;094-214-00;DFIST000300;34;9;1
1204;015-213-00;MCIST000401;15;15;1
1205;030-223-00;VZIST000820;30;30;1
1206;092-214-00;DFIST000650;33;9;1
1207;029-204-04;TLIST000054;29;29;1
1208;023-207-00;QRIST000084;23;23;1
1209;091-219-09;DFIST000971;9;9;1
1210;001-206-00;ASIST000062;1;1;1
1211;008-217-00;CHIST000293;8;8;1
1212;043-203-00;MSIST000293;17;17;1
1213;042-203-00;MCIST000425;15;15;1
1214;019-206-00;NLIST000373;19;19;1
1215;019-208-00;NLIST000385;19;19;1
1216;002-208-00;BCIST000146;2;2;1
1218;021-214-29;PLIST000451;21;0;1
1220;094-208-01;DFIST001012;34;0;1
1221;014-213-00;JCIST000873;14;14;1
1222;005-209-00;CLIST000193;5;5;1
1223;091-214-06;DFIST001041;9;9;1
1224;005-210-00;CLIST000181;5;5;1
1225;026-215-00;SRIST000174;26;26;1
1226;021-214-00;PLIST000212;21;21;0
1227;011-209-00;GTIST000423;11;11;1
1228;014-205-20;JCIST000885;14;14;1
1229;014-205-21;JCIST000890;14;14;1
1230;091-211-04;0;9;9;0
1231;093-206-05;DFIST001036;35;9;0
1232;022-206-00;QTIST000046;22;22;1
1233;091-211-05;0;9;9;0
1234;014-205-23;JCIST000910;14;14;1
1235;014-210-06;0;14;14;1
1236;029-204-05;0;29;29;0
1237;014-205-22;JCIST000901;14;14;1
1238;001-205-11;ASIST000131;1;1;1
1239;014-205-24;0;14;14;1
1240;017-205-11;0;17;17;1
1241;091-212-07;0;9;9;1
1242;091-214-07;0;9;9;1
1243;092-204-01;0;33;9;1
1244;093-206-06;0;35;9;1
1245;093-206-07;0;35;9;1
1246;093-219-02;0;35;9;1
1247;028-214-00;TSIST000345;28;28;1
1248;094-208-02;0;34;9;1
1249;002-209-00;BCIST000093;2;2;1
1250;005-220-00;CLIST000106;5;5;1
1251;044-203-00;MNIST000120;16;16;1
1252;045-203-00;VZIST000301;30;30;1
1253;003-208-00;BSIST000101;3;3;1
1254;015-216-00;MCIST000442;15;15;1
1255;093-206-08;0;35;9;0
1256;015-213-23;MCIST000343;15;15;1
1257;092-204-04;DFIST000814;33;9;0
1258;003-209-00;BSIST000330;3;3;1
1259;015-216-01;MCIST000331;15;15;1
1260;015-216-02;MCIST000326;15;15;1
1261;032-207-00;ZSIST000044;32;32;1
1262;031-204-00;YNIST000030;31;31;1
1263;017-205-12;0;17;17;1
1264;017-208-01;MSIST000013;17;17;1
1265;017-208-02;MSIST000100;17;17;1
1266;017-208-03;MSIST000240;17;17;1
1267;017-208-04;MSIST000206;17;17;1
1268;017-208-05;MSIST000124;17;17;1
1269;005-221-00;;5;5;1
1270;010-206-16;;10;10;1
1271;015-213-24;;15;15;1
1272;020-210-02;;20;20;1
1273;020-211-00;OCIST000235;20;20;1
1274;029-205-00;;29;29;1
3333;333-333-333;0;9;9;0
