ASIST000016;001-204-00;1
ASIST000021;001-205-00;1
ASIST000050;001-205-01;1
ASIST000033;001-205-03;1
ASIST000045;001-205-04;1
ASIST000074;001-205-05;1
ASIST000103;001-205-08;1
ASIST000115;001-205-09;1
ASIST000120;001-205-10;1
ASIST000131;001-205-11;1
ASIST000062;001-206-00;1
BCIST000040;002-204-00;2
BCIST000076;002-204-01;2
BCIST000052;002-204-02;2
BCIST000064;002-204-03;2
BCIST000011;002-206-00;2
BCIST000023;002-206-02;2
BCIST000035;002-206-03;2
BCIST000105;002-206-04;2
BCIST000110;002-206-05;2
BCIST000122;002-206-08;2
BCIST000146;002-208-00;2
BCIST000093;002-209-00;2
BCIST000134;002-209-01;2
BCIST000081;002-209-02;2
BSIST000330;003-207-00;3
BSIST000096;003-207-01;3
BSIST000270;003-207-02;3
BSIST000265;003-207-03;3
BSIST000294;003-207-04;3
BSIST000241;003-207-05;3
BSIST000306;003-207-06;3
BSIST000282;003-207-07;3
BSIST000236;003-207-09;3
BSIST000311;003-207-10;3
BSIST000084;003-207-11;3
BSIST000224;003-207-12;3
BSIST000253;003-207-13;3
BSIST000014;003-205-00;3
BSIST000113;003-205-01;3
BSIST000130;003-205-02;3
BSIST000031;003-205-03;3
BSIST000166;003-205-04;3
BSIST000142;003-205-05;3
BSIST000026;003-205-06;3
BSIST000154;003-205-07;3
BSIST000043;003-206-00;3
BSIST000171;003-206-01;3
BSIST000183;003-206-02;3
BSIST000055;003-206-03;3
BSIST000195;003-206-04;3
BSIST000200;003-206-05;3
BSIST000212;003-206-06;3
BSIST000060;003-206-07;3
BSIST000101;003-208-00;3
PENDIENTE;003-209-00;3
CCIST000021;004-204-00;4
CCIST000016;004-204-01;4
CCIST000086;004-204-02;4
CCIST000045;004-204-03;4
CCIST000074;004-204-04;4
CCIST000050;004-204-05;4
CCIST000062;004-204-06;4
CCIST000091;004-204-07;4
CCIST000115;004-204-08;4
CCIST000033;004-205-00;4
CCIST000103;004-205-01;4
CLIST000123;005-205-00;5
CLIST000065;005-206-00;5
CLIST000210;005-206-01;5
CLIST000036;005-206-02;5
CLIST000321;005-206-03;5
CLIST000251;005-206-04;5
CLIST000304;005-206-05;5
CLIST000094;005-207-00;5
CLIST000024;005-207-01;5
CLIST000234;005-207-02;5
CLIST000135;005-207-03;5
CLIST000012;005-208-00;5
CLIST000193;005-209-00;5
CLIST000070;005-209-01;5
CLIST000246;005-209-02;5
CLIST000181;005-210-00;5
CLIST000111;005-211-00;5
CLIST000041;005-211-01;5
CLIST000316;005-211-02;5
CLIST000140;005-216-00;5
CLIST000053;005-216-01;5
CLIST000106;005-220-00;5
CLIST000222;005-220-01;5
CLIST000275;005-220-02;5
CLIST000280;005-220-04;5
CLIST000292;005-220-05;5
CLIST000263;005-220-06;5
CLIST000082;005-220-07;5
CMIST000010;006-204-00;6
CMIST000046;006-204-01;6
CMIST000051;006-204-02;6
CMIST000034;006-204-03;6
CMIST000022;006-205-00;6
CSIST000251;007-204-00;7
CSIST000210;007-205-00;7
CSIST000041;007-205-01;7
CSIST000205;007-205-02;7
CSIST000106;007-205-03;7
CSIST000123;007-205-04;7
CSIST000135;007-205-05;7
CSIST000012;007-205-06;7
CSIST000403;007-205-07;7
CSIST000415;007-205-08;7
CSIST000193;007-206-00;7
CSIST000140;007-206-01;7
CSIST000164;007-206-02;7
CSIST000275;007-206-03;7
CSIST000181;007-206-04;7
CSIST000350;007-206-05;7
CSIST000333;007-206-06;7
CSIST000065;007-207-00;7
CSIST000094;007-207-01;7
CSIST000391;007-207-02;7
CSIST000374;007-207-03;7
CSIST000485;007-207-04;7
CSIST000246;007-208-00;7
CSIST000024;007-208-01;7
CSIST000036;007-208-02;7
CSIST000053;007-208-03;7
CSIST000386;007-208-04;7
CSIST000070;007-208-05;7
CSIST000082;007-208-06;7
CSIST000111;007-208-08;7
CSIST000152;007-208-09;7
CSIST000176;007-208-11;7
CSIST000222;007-208-16;7
CSIST000234;007-208-17;7
CSIST000304;007-208-18;7
CSIST000280;007-208-19;7
CSIST000263;007-208-20;7
CSIST000432;007-208-22;7
CSIST000444;007-208-23;7
CSIST000456;007-208-24;7
CSIST000461;007-208-25;7
CSIST000321;007-208-26;7
CSIST000473;007-208-28;7
CSIST000292;007-208-29;7
CSIST000420;007-208-30;7
CSIST000316;007-208-31;7
CSIST000362;007-208-32;7
CSIST000490;007-208-33;7
CHIST000030;008-204-00;8
CHIST000310;008-204-01;8
CHIST000182;008-204-04;8
CHIST000153;008-204-08;8
CHIST000112;008-205-00;8
CHIST000042;008-206-00;8
CHIST000095;008-207-00;8
CHIST000223;008-207-01;8
CHIST000334;008-207-03;8
CHIST000066;008-207-04;8
CHIST000450;008-207-05;8
CHIST000462;008-207-06;8
CHIST000194;008-207-07;8
CHIST000491;008-207-08;8
CHIST000136;008-207-09;8
CHIST000281;008-207-12;8
CHIST000100;008-207-13;8
CHIST000025;008-210-00;8
CHIST000474;008-210-01;8
CHIST000404;008-210-03;8
CHIST000305;008-210-04;8
CHIST000240;008-210-06;8
CHIST000392;008-210-09;8
CHIST000071;008-210-10;8
CHIST000083;008-210-11;8
CHIST000124;008-210-13;8
CHIST000346;008-210-16;8
CHIST000416;008-210-18;8
CHIST000276;008-210-19;8
CHIST000235;008-210-20;8
CHIST000380;008-210-21;8
CHIST000486;008-210-23;8
CHIST000421;008-210-24;8
CHIST000363;008-211-00;8
CHIST000211;008-211-01;8
CHIST000445;008-211-03;8
CHIST000206;008-211-04;8
CHIST000141;008-211-05;8
CHIST000170;008-211-06;8
CHIST000264;008-211-07;8
CHIST000252;008-211-08;8
CHIST000351;008-211-09;8
CHIST000054;008-213-00;8
CHIST000165;008-213-02;8
CHIST000013;008-213-03;8
CHIST000293;008-217-00;8
DGIST000042;010-204-00;10
DGIST000346;010-205-00;10
DGIST000054;010-206-00;10
DGIST000025;010-206-01;10
DGIST000136;010-206-03;10
DGIST000375;010-206-04;10
DGIST000100;010-206-05;10
DGIST000071;010-206-06;10
DGIST000083;010-206-07;10
DGIST000380;010-206-08;10
DGIST000416;010-206-09;10
DGIST000112;010-206-10;10
DGIST000170;010-206-11;10
DGIST000363;010-206-12;10
DGIST000404;010-206-13;10
DGIST000351;010-206-14;10
DGIST000433;010-206-15;10
DGIST000030;010-207-00;10
DGIST000013;010-207-01;10
DGIST000206;010-207-02;10
DGIST000124;010-207-03;10
DGIST000223;010-207-04;10
DGIST000066;010-207-05;10
DGIST000235;010-207-06;10
DGIST000445;010-207-07;10
DGIST000095;010-207-08;10
DGIST000194;010-207-09;10
DGIST000141;010-207-10;10
DGIST000281;010-207-11;10
DGIST000153;010-207-12;10
DGIST000293;010-207-13;10
DGIST000305;010-207-14;10
DGIST000310;010-207-15;10
DGIST000165;010-207-16;10
DGIST000322;010-207-17;10
DGIST000182;010-207-18;10
DGIST000334;010-207-19;10
DGIST000211;010-207-24;10
DGIST000240;010-207-26;10
DGIST000252;010-207-29;10
GTIST000091;037-203-00;11
GTIST000086;011-204-00;11
GTIST000016;011-204-01;11
GTIST000260;011-204-02;11
GTIST000103;011-204-03;11
GTIST000115;011-204-04;11
GTIST000185;011-204-05;11
GTIST000190;011-204-06;11
GTIST000202;011-204-07;11
GTIST000243;011-204-08;11
GTIST000313;011-204-09;11
GTIST000144;011-204-10;11
GTIST000325;011-205-00;11
GTIST000074;011-206-00;11
GTIST000062;011-206-01;11
GTIST000330;011-206-02;11
GTIST000161;011-206-03;11
GTIST000156;011-206-04;11
GTIST000383;011-206-05;11
GTIST000395;011-206-06;11
GTIST000272;011-206-07;11
GTIST000412;011-206-08;11
GTIST000301;011-206-09;11
GTIST000132;011-206-10;11
GTIST000173;011-206-11;11
GTIST000045;011-207-00;11
GTIST000021;011-207-01;11
GTIST000214;011-207-02;11
GTIST000226;011-207-03;11
GTIST000255;011-207-04;11
GTIST000050;011-207-05;11
GTIST000284;011-207-06;11
GTIST000296;011-207-07;11
GTIST000342;011-207-08;11
GTIST000231;011-207-09;11
GTIST000120;011-207-10;11
GTIST000033;011-207-11;11
GTIST000354;011-207-12;11
GTIST000366;011-207-13;11
GTIST000371;011-207-14;11
GTIST000400;011-207-15;11
GTIST000423;011-209-00;11
GRIST000025;012-204-00;12
GRIST000112;012-205-00;12
GRIST000100;012-205-01;12
GRIST000450;012-205-02;12
GRIST000124;012-205-03;12
GRIST000182;012-205-04;12
GRIST000170;012-205-05;12
GRIST000281;012-205-06;12
GRIST000136;012-205-09;12
GRIST000433;012-205-10;12
GRIST000503;012-205-13;12
GRIST000153;012-206-00;12
GRIST000030;012-206-01;12
GRIST000363;012-206-03;12
GRIST000042;012-206-04;12
GRIST000380;012-206-05;12
GRIST000095;012-206-06;12
GRIST000404;012-206-07;12
GRIST000141;012-206-08;12
GRIST000276;012-206-09;12
GRIST000305;012-206-10;12
GRIST000491;012-206-12;12
GRIST000252;012-206-13;12
GRIST000194;012-207-00;12
GRIST000013;012-208-00;12
GRIST000310;012-208-01;12
GRIST000054;012-208-02;12
GRIST000322;012-208-03;12
GRIST000066;012-208-04;12
GRIST000083;012-208-05;12
GRIST000416;012-208-06;12
GRIST000392;012-208-07;12
GRIST000240;012-208-10;12
GRIST000071;012-208-11;12
GRIST000206;012-208-12;12
GRIST000375;012-208-13;12
GRIST000223;012-208-14;12
GRIST000235;012-208-15;12
GRIST000474;012-208-16;12
GRIST000351;012-208-18;12
GRIST000165;012-208-19;12
GRIST000334;012-208-20;12
GRIST000346;012-208-21;12
GRIST000211;012-209-00;12
GRIST000264;012-210-00;12
GRIST000293;012-212-00;12
HGIST000106;013-204-00;13
HGIST000012;013-204-01;13
HGIST000024;013-204-02;13
HGIST000164;013-204-03;13
HGIST000070;013-204-05;13
HGIST000210;013-204-06;13
HGIST000304;013-204-09;13
HGIST000123;013-204-13;13
HGIST000152;013-204-15;13
HGIST000350;013-204-16;13
HGIST000251;013-204-17;13
HGIST000263;013-204-18;13
HGIST000065;013-205-00;13
HGIST000053;013-205-03;13
HGIST000205;013-205-04;13
HGIST000234;013-205-06;13
HGIST000275;013-205-08;13
HGIST000280;013-205-09;13
HGIST000362;013-205-10;13
HGIST000140;013-206-00;13
HGIST000292;013-206-02;13
HGIST000041;013-207-00;13
HGIST000193;013-207-01;13
HGIST000246;013-207-02;13
HGIST000321;013-207-03;13
HGIST000176;013-207-05;13
HGIST000094;013-207-06;13
HGIST000345;013-207-09;13
HGIST000181;013-207-12;13
HGIST000082;013-208-00;13
HGIST000036;013-208-01;13
HGIST000111;013-208-02;13
HGIST000316;013-208-03;13
HGIST000333;013-208-04;13
HGIST000135;013-208-05;13
JCIST000132;034-203-00;14
JCIST000074;014-204-00;14
JCIST000161;014-204-01;14
JCIST000016;014-204-02;14
JCIST000272;014-204-03;14
JCIST000820;014-204-04;14
JCIST000511;014-204-05;14
JCIST000680;014-204-06;14
JCIST000342;014-204-07;14
JCIST000436;014-204-08;14
JCIST000144;014-204-09;14
JCIST000330;014-204-10;14
JCIST000441;014-204-11;14
JCIST000354;014-204-12;14
JCIST000185;014-204-14;14
JCIST000226;014-204-15;14
JCIST000540;014-204-16;14
JCIST000296;014-204-17;14
JCIST000366;014-205-00;14
JCIST000091;014-205-02;14
JCIST000050;014-205-04;14
JCIST000692;014-205-05;14
JCIST000523;014-205-06;14
JCIST000856;014-205-09;14
JCIST000371;014-205-10;14
JCIST000383;014-205-11;14
JCIST000156;014-205-15;14
JCIST000651;014-205-16;14
JCIST000844;014-205-19;14
JCIST000885;014-205-20;14
JCIST000890;014-205-21;14
JCIST000901;014-205-22;14
JCIST000910;014-205-23;14
PENDIENTE;014-205-24;14
JCIST000395;014-206-00;14
JCIST000465;014-206-01;14
JCIST000301;014-206-02;14
JCIST000494;014-206-03;14
JCIST000033;014-206-04;14
JCIST000564;014-206-05;14
JCIST000861;014-206-06;14
JCIST000190;014-206-07;14
JCIST000115;014-206-08;14
JCIST000622;014-206-09;14
JCIST000786;014-206-10;14
JCIST000750;014-206-11;14
JCIST000733;014-206-12;14
JCIST000173;014-206-13;14
JCIST000202;014-206-14;14
JCIST000400;014-206-15;14
JCIST000593;014-206-17;14
JCIST000482;014-206-18;14
JCIST000832;014-206-19;14
JCIST000745;014-206-21;14
JCIST000774;014-206-22;14
JCIST000313;014-206-23;14
JCIST000424;014-206-27;14
JCIST000506;014-207-00;14
JCIST000325;014-207-01;14
JCIST000470;014-207-02;14
JCIST000576;014-207-03;14
JCIST000634;014-207-04;14
JCIST000663;014-207-05;14
JCIST000103;014-207-06;14
JCIST000646;014-207-07;14
JCIST000045;014-208-00;14
JCIST000791;014-208-01;14
JCIST000721;014-208-02;14
JCIST000704;014-208-03;14
JCIST000535;014-208-04;14
JCIST000716;014-208-05;14
JCIST000675;014-208-08;14
JCIST000815;014-208-09;14
JCIST000021;014-209-00;14
JCIST000214;014-209-01;14
JCIST000062;014-209-02;14
JCIST000453;014-209-03;14
JCIST000925;014-209-04;14
JCIST000255;014-209-07;14
JCIST000610;014-209-12;14
JCIST000260;014-209-13;14
JCIST000243;014-209-14;14
JCIST000284;014-209-15;14
JCIST000086;014-210-00;14
JCIST000120;014-210-01;14
JCIST000762;014-210-02;14
JCIST000231;014-210-04;14
JCIST000605;014-210-05;14
PENDIENTE;014-210-06;14
JCIST000873;014-213-00;14
MCIST000425;042-203-00;15
MCIST000215;015-204-00;15
MCIST000075;015-205-00;15
MCIST000174;015-205-01;15
MCIST000220;015-205-02;15
MCIST000010;015-205-03;15
MCIST000396;015-205-04;15
MCIST000372;015-205-05;15
MCIST000116;015-206-00;15
MCIST000355;015-207-00;15
MCIST000203;015-208-00;15
MCIST000186;015-210-00;15
MCIST000022;015-210-01;15
MCIST000051;015-210-02;15
MCIST000063;015-211-00;15
MCIST000401;015-213-00;15
MCIST000261;015-213-01;15
MCIST000034;015-213-02;15
MCIST000290;015-213-03;15
MCIST000080;015-213-04;15
MCIST000092;015-213-05;15
MCIST000162;015-213-06;15
MCIST000314;015-213-07;15
MCIST000133;015-213-08;15
MCIST000145;015-213-09;15
MCIST000191;015-213-10;15
MCIST000273;015-213-11;15
MCIST000150;015-213-12;15
MCIST000413;015-213-13;15
MCIST000302;015-213-14;15
MCIST000104;015-213-16;15
MCIST000256;015-213-17;15
MCIST000121;015-213-18;15
MCIST000046;015-213-19;15
MCIST000244;015-213-20;15
PENDIENTE;015-213-23;15
MCIST000384;015-214-00;15
MCIST000442;015-216-00;15
PENDIENTE;015-216-01;15
PENDIENTE;015-216-02;15
MNIST000120;044-203-00;16
MNIST000202;016-205-00;16
MNIST000366;016-205-02;16
MNIST000552;016-205-05;16
MNIST000330;016-205-06;16
MNIST000441;016-205-07;16
MNIST000465;016-205-08;16
MNIST000016;016-206-00;16
MNIST000243;016-206-01;16
MNIST000284;016-206-02;16
MNIST000540;016-206-03;16
MNIST000132;016-206-04;16
MNIST000062;016-206-07;16
MNIST000156;016-207-00;16
MNIST000255;016-207-01;16
MNIST000675;016-207-02;16
MNIST000470;016-207-03;16
MNIST000535;016-207-04;16
MNIST000646;016-207-05;16
MNIST000231;016-208-00;16
MNIST000260;016-208-01;16
MNIST000272;016-208-02;16
MNIST000610;016-208-06;16
MNIST000605;016-208-07;16
MNIST000564;016-208-08;16
MNIST000050;016-208-09;16
MNIST000226;016-209-00;16
MNIST000325;016-209-01;16
MNIST000045;016-209-02;16
MNIST000395;016-209-03;16
MNIST000173;016-209-04;16
MNIST000482;016-209-05;16
MNIST000523;016-209-06;16
MNIST000634;016-209-07;16
MNIST000144;016-210-00;16
MNIST000342;016-210-01;16
MNIST000506;016-210-03;16
MNIST000593;016-210-04;16
MNIST000511;016-210-05;16
MNIST000190;016-210-06;16
MNIST000021;016-210-07;16
MNIST000074;016-210-08;16
MNIST000185;016-211-00;16
MNIST000086;016-211-01;16
MNIST000453;016-211-02;16
MNIST000412;016-211-03;16
MNIST000622;016-211-04;16
MNIST000103;016-212-00;16
MNIST000033;016-212-01;16
MNIST000296;016-212-02;16
MNIST000115;016-212-04;16
MNIST000214;016-213-00;16
MNIST000301;016-213-01;16
MNIST000383;016-213-02;16
MNIST000424;016-214-00;16
MNIST000313;016-214-01;16
MNIST000091;016-214-02;16
MNIST000161;016-214-03;16
MNIST000494;016-214-04;16
MNIST000576;016-214-05;16
MNIST000436;016-214-06;16
MNIST000663;016-214-08;16
MNIST000354;016-214-09;16
MNIST000371;016-214-10;16
MSIST000293;043 -203-00;17
MSIST000025;017-205-00;17
MSIST000071;017-205-01;17
MSIST000211;017-205-02;17
MSIST000252;017-205-03;17
MSIST000141;017-205-04;17
MSIST000112;017-205-05;17
MSIST000276;017-205-06;17
MSIST000281;017-205-07;17
MSIST000235;017-205-08;17
MSIST000136;017-205-09;17
PENDIENTE;017-205-11;17
PENDIENTE;017-205-12;17
MSIST000030;017-206-00;17
MSIST000013;017-206-01;17
MSIST000165;017-206-02;17
MSIST000182;017-206-03;17
MSIST000194;017-206-06;17
MSIST000153;017-206-07;17
MSIST000083;017-206-08;17
MSIST000223;017-206-09;17
MSIST000095;017-206-10;17
MSIST000100;017-206-11;17
MSIST000240;017-206-12;17
MSIST000170;017-206-13;17
MSIST000264;017-206-14;17
MSIST000206;017-206-15;17
MSIST000124;017-206-16;17
MSIST000054;017-208-00;17
NTIST000120;018-204-00;18
NTIST000016;018-205-00;18
NTIST000231;018-205-01;18
NTIST000255;018-205-02;18
NTIST000086;018-205-03;18
NTIST000173;018-205-04;18
NTIST000115;018-205-05;18
NTIST000132;018-205-06;18
NTIST000161;018-205-07;18
NTIST000243;018-206-00;18
NTIST000021;018-206-01;18
NTIST000156;018-206-02;18
NTIST000033;018-206-03;18
NTIST000062;018-206-04;18
NTIST000050;018-206-06;18
NTIST000074;018-206-07;18
NTIST000202;018-206-08;18
NTIST000045;018-206-09;18
NTIST000144;018-206-10;18
NTIST000226;018-206-11;18
NTIST000091;018-206-12;18
NTIST000103;018-206-13;18
NTIST000214;018-206-16;18
NLIST000105;035-203-00;19
NLIST000093;019-204-00;19
NLIST000233;019-204-01;19
NLIST000315;019-204-02;19
NLIST000146;019-204-03;19
NLIST000023;019-204-04;19
NLIST000011;019-204-05;19
NLIST000216;019-204-06;19
NLIST000035;019-204-07;19
NLIST000040;019-204-08;19
NLIST000064;019-204-09;19
NLIST000320;019-204-10;19
NLIST000262;019-204-12;19
NLIST000245;019-204-13;19
NLIST000303;019-204-14;19
NLIST000081;019-204-16;19
NLIST000274;019-204-17;19
NLIST000180;019-204-18;19
NLIST000110;019-204-19;19
NLIST000122;019-204-23;19
NLIST000361;019-204-24;19
NLIST000332;019-204-25;19
NLIST000163;019-204-26;19
NLIST000052;019-204-27;19
NLIST000356;019-204-28;19
NLIST000175;019-204-29;19
NLIST000250;019-204-31;19
NLIST000151;019-204-32;19
NLIST000076;019-205-00;19
NLIST000373;019-206-00;19
NLIST000385;019-208-00;19
OCIST000112;039-203-00;20
OCIST000136;020-204-00;20
OCIST000025;020-204-01;20
OCIST000066;020-204-02;20
OCIST000585;020-204-03;20
OCIST000544;020-204-04;20
OCIST000515;020-204-05;20
OCIST000322;020-204-06;20
OCIST000252;020-205-00;20
OCIST000083;020-205-01;20
OCIST000211;020-205-02;20
OCIST000141;020-205-03;20
OCIST000392;020-205-04;20
OCIST000346;020-205-05;20
OCIST000556;020-205-06;20
OCIST000165;020-206-00;20
OCIST000305;020-206-01;20
OCIST000071;020-206-02;20
OCIST000170;020-206-04;20
OCIST000182;020-206-05;20
OCIST000590;020-206-06;20
OCIST000421;020-206-07;20
OCIST000380;020-206-08;20
OCIST000042;020-207-00;20
OCIST000310;020-207-01;20
OCIST000532;020-207-02;20
OCIST000334;020-207-03;20
OCIST000264;020-207-05;20
OCIST000276;020-207-06;20
OCIST000235;020-207-07;20
OCIST000124;020-207-08;20
OCIST000462;020-208-00;20
OCIST000206;020-208-02;20
OCIST000474;020-208-03;20
OCIST000223;020-208-04;20
OCIST000486;020-208-05;20
OCIST000491;020-208-09;20
OCIST000561;020-208-10;20
OCIST000503;020-208-12;20
OCIST000100;020-209-00;20
OCIST000351;020-209-01;20
OCIST000404;020-209-02;20
PENDIENTE;020-209-03;20
OCIST000030;020-209-04;20
OCIST000054;020-209-05;20
OCIST000095;020-209-06;20
OCIST000363;020-209-07;20
OCIST000450;020-209-08;20
OCIST000281;020-209-10;20
OCIST000153;020-209-11;20
OCIST000573;020-209-12;20
OCIST000013;020-209-14;20
OCIST000240;020-210-00;20
PLIST000101;036-203-00;21
PLIST000014;021-205-00;21
PLIST000026;021-206-00;21
PLIST000253;021-206-01;21
PLIST000241;021-206-02;21
PLIST000096;021-206-03;21
PLIST000072;021-207-00;21
PLIST000311;021-207-01;21
PLIST000195;021-207-02;21
PLIST000055;021-207-03;21
PLIST000393;021-207-04;21
PLIST000200;021-207-05;21
PENDIENTE;021-207-06;21
PLIST000154;021-208-00;21
PLIST000043;021-208-01;21
PLIST000060;021-208-02;21
PLIST000236;021-208-04;21
PLIST000270;021-208-05;21
PLIST000125;021-209-00;21
PLIST000282;021-209-01;21
PLIST000171;021-210-00;21
PLIST000031;021-210-01;21
PLIST000294;021-210-02;21
PLIST000183;021-210-04;21
PLIST000422;021-210-06;21
PLIST000460;021-210-07;21
PLIST000434;021-210-08;21
PLIST000212;021-214-00;21
PLIST000381;021-214-04;21
PLIST000306;021-214-05;21
PLIST000084;021-214-06;21
PLIST000142;021-214-07;21
PLIST000166;021-214-08;21
PLIST000224;021-214-11;21
PLIST000130;021-214-12;21
PLIST000113;021-214-13;21
PLIST000323;021-214-14;21
PLIST000335;021-214-15;21
PLIST000340;021-214-16;21
PLIST000352;021-214-17;21
PLIST000364;021-214-27;21
PLIST000376;021-214-28;21
PLIST000451;021-214-29;21
QTIST000046;022-206-00;22
QTIST000051;022-205-00;22
QTIST000010;022-205-03;22
QTIST000022;022-205-05;22
QTIST000121;022-205-06;22
QTIST000133;022-205-07;22
QTIST000034;022-205-08;22
QTIST000150;022-205-13;22
QTIST000092;022-205-14;22
QTIST000080;022-205-15;22
QTIST000145;022-205-16;22
QTIST000063;022-205-18;22
QTIST000075;022-205-19;22
QRIST000043;023-204-00;23
QRIST000026;023-204-01;23
QRIST000060;023-204-02;23
QRIST000096;023-204-03;23
QRIST000055;023-205-00;23
QRIST000072;023-205-01;23
QRIST000031;023-205-02;23
QRIST000101;023-205-03;23
QRIST000014;023-206-00;23
QRIST000084;023-207-00;23
SPIST000113;024-204-00;24
SPIST000055;024-205-00;24
SPIST000072;024-205-02;24
SPIST000282;024-205-03;24
SPIST000154;024-205-04;24
SPIST000183;024-205-05;24
SPIST000043;024-205-10;24
SPIST000294;024-205-11;24
SPIST000311;024-205-14;24
SPIST000212;024-206-00;24
SPIST000130;024-206-01;24
SPIST000026;024-206-03;24
SPIST000060;024-206-04;24
SPIST000101;024-206-05;24
SPIST000166;024-206-07;24
SPIST000270;024-206-09;24
SPIST000224;024-206-12;24
SPIST000265;024-206-14;24
SPIST000236;024-206-15;24
SPIST000241;024-206-16;24
SPIST000084;024-207-00;24
SPIST000142;024-208-00;24
SPIST000171;024-208-01;24
SPIST000253;024-208-02;24
SPIST000306;024-208-03;24
SPIST000096;024-209-00;24
SPIST000014;024-209-01;24
SPIST000031;024-209-02;24
SPIST000200;024-209-03;24
SLIST000085;033-203-00;25
SLIST000196;025-204-00;25
SLIST000056;025-204-01;25
SLIST000225;025-204-03;25
SLIST000131;025-204-04;25
SLIST000242;025-204-05;25
SLIST000201;025-204-07;25
SLIST000015;025-205-00;25
SLIST000020;025-205-01;25
SLIST000382;025-205-02;25
SLIST000172;025-205-03;25
SLIST000114;025-205-04;25
SLIST000283;025-205-05;25
SLIST000143;025-205-06;25
SLIST000370;025-205-07;25
SLIST000160;025-205-08;25
SLIST000295;025-205-09;25
SLIST000184;025-205-10;25
SLIST000353;025-205-11;25
SLIST000155;025-205-12;25
SLIST000254;025-205-13;25
SLIST000266;025-205-14;25
SLIST000073;025-206-00;25
SLIST000032;025-206-01;25
SLIST000044;025-206-02;25
SLIST000061;025-206-03;25
SLIST000102;025-206-04;25
SLIST000230;025-206-05;25
SLIST000126;025-206-06;25
SLIST000213;025-206-07;25
SLIST000271;025-206-08;25
SLIST000365;025-206-09;25
SLIST000336;025-206-10;25
SLIST000341;025-206-11;25
SLIST000312;025-206-12;25
SLIST000300;025-206-13;25
SLIST000324;025-206-14;25
SLIST000090;025-206-15;25
SRIST000133;026-204-00;26
SRIST000046;026-205-00;26
SRIST000051;026-205-01;26
SRIST000116;026-205-02;26
SRIST000080;026-205-03;26
SRIST000261;026-205-04;26
SRIST000273;026-205-05;26
SRIST000401;026-205-06;26
SRIST000162;026-206-00;26
SRIST000022;026-206-01;26
SRIST000092;026-206-02;26
SRIST000145;026-206-03;26
SRIST000302;026-206-04;26
SRIST000343;026-206-05;26
SRIST000104;026-208-00;26
SRIST000075;026-208-01;26
SRIST000203;026-211-00;26
SRIST000186;026-211-01;26
SRIST000232;026-211-02;26
SRIST000121;026-212-00;26
SRIST000256;026-212-01;26
SRIST000285;026-212-02;26
SRIST000290;026-212-03;26
SRIST000150;026-212-04;26
SRIST000220;026-212-05;26
SRIST000191;026-212-06;26
SRIST000326;026-212-07;26
SRIST000331;026-212-08;26
SRIST000396;026-212-09;26
SRIST000360;026-212-10;26
SRIST000174;026-215-00;26
SRIST000034;026-215-01;26
SRIST000244;026-215-02;26
SRIST000215;026-215-03;26
SRIST000355;026-215-04;26
SRIST000010;026-215-06;26
SRIST000372;026-215-07;26
SRIST000384;026-215-08;26
SRIST000063;026-215-09;26
SRIST000314;026-215-10;26
TCIST000063;027-204-00;27
TCIST000034;027-205-00;27
TCIST000186;027-206-00  ;27
TCIST000010;027-206-01;27
TCIST000075;027-206-02;27
TCIST000080;027-206-03;27
TCIST000092;027-206-04;27
TCIST000051;027-206-05;27
TCIST000104;027-206-06;27
TCIST000116;027-206-07;27
TCIST000121;027-206-08;27
TCIST000145;027-206-09;27
TCIST000162;027-206-10;27
TCIST000174;027-206-11;27
TCIST000046;027-206-12;27
TCIST000133;027-206-13;27
TCIST000191;027-206-14;27
TCIST000150;027-206-15;27
TCIST000232;027-206-16;27
TCIST000244;027-206-17;27
TCIST000022;027-206-18;27
TCIST000256;027-206-19;27
TCIST000261;027-206-20;27
TCIST000220;027-206-21;27
TCIST000215;027-206-22;27
TCIST000203;027-206-23;27
TSIST000153;028-204-00;28
TSIST000013;028-204-01;28
TSIST000310;028-204-02;28
TSIST000252;028-204-03;28
TSIST000264;028-204-04;28
TSIST000240;028-204-05;28
TSIST000042;028-204-06;28
TSIST000305;028-204-08;28
TSIST000322;028-204-09;28
TSIST000334;028-204-10;28
TSIST000124;028-204-12;28
TSIST000182;028-205-00;28
TSIST000100;028-206-00;28
TSIST000025;028-206-01;28
TSIST000235;028-206-02;28
TSIST000083;028-206-04;28
TSIST000281;028-206-05;28
TSIST000071;028-207-00;28
TSIST000276;028-207-01;28
TSIST000141;028-207-02;28
TSIST000112;028-207-03;28
TSIST000095;028-208-00;28
TSIST000223;028-208-01;28
TSIST000170;028-209-00;28
TSIST000054;028-210-00;28
TSIST000066;028-210-01;28
TSIST000293;028-210-02;28
TSIST000030;028-210-03;28
TSIST000165;028-210-04;28
TSIST000136;028-211-00;28
TSIST000194;028-211-01;28
TSIST000211;028-211-02;28
TSIST000206;028-211-03;28
TSIST000345;028-214-00;28
TLIST000042;029-204-00;29
TLIST000013;029-204-01;29
TLIST000025;029-204-02;29
TLIST000030;029-204-03;29
TLIST000054;029-204-04;29
VZIST000301;045-203-00;30
VZIST000120;030-204-00;30
VZIST000050;030-204-01;30
VZIST000202;030-204-02;30
VZIST000470;030-204-03;30
VZIST000593;030-204-04;30
VZIST000540;030-204-06;30
VZIST000552;030-204-07;30
VZIST000564;030-204-08;30
VZIST000576;030-204-09;30
VZIST000330;030-204-10;30
VZIST000354;030-204-11;30
VZIST000424;030-206-00;30
VZIST000506;030-206-01;30
VZIST000733;030-206-02;30
VZIST000663;030-206-04;30
VZIST000272;030-206-05;30
VZIST000173;030-207-00;30
VZIST000634;030-207-01;30
VZIST000313;030-207-02;30
VZIST000383;030-207-03;30
VZIST000296;030-208-00;30
VZIST000716;030-208-01;30
VZIST000774;030-208-02;30
VZIST000255;030-208-03;30
VZIST000366;030-208-04;30
VZIST000091;030-208-05;30
VZIST000675;030-208-06;30
VZIST000721;030-208-07;30
VZIST000045;030-208-08;30
VZIST000864;030-208-09;30
VZIST000646;030-208-10;30
VZIST000185;030-208-11;30
VZIST000844;030-208-12;30
VZIST000680;030-208-13;30
VZIST000226;030-209-00;30
VZIST000651;030-209-01;30
VZIST000400;030-209-02;30
VZIST000453;030-209-03;30
VZIST000482;030-209-04;30
VZIST000103;030-209-05;30
VZIST000115;030-209-06;30
VZIST000535;030-209-07;30
VZIST000190;030-209-09;30
VZIST000745;030-209-10;30
VZIST000086;030-209-11;30
VZIST000074;030-209-12;30
VZIST000062;030-210-00;30
VZIST000832;030-210-01;30
VZIST000412;030-210-02;30
VZIST000465;030-210-03;30
VZIST000231;030-213-00;30
VZIST000395;030-213-01;30
VZIST000511;030-213-02;30
VZIST000605;030-213-03;30
VZIST000132;030-213-04;30
VZIST000214;030-213-05;30
VZIST000243;030-213-06;30
VZIST000260;030-213-07;30
VZIST000523;030-213-08;30
VZIST000156;030-214-00;30
VZIST000436;030-214-01;30
VZIST000494;030-214-02;30
VZIST000581;030-214-03;30
VZIST000856;030-214-04;30
VZIST000144;030-216-00;30
VZIST000161;030-216-03;30
VZIST000622;030-216-04;30
VZIST000284;030-216-05;30
VZIST000791;030-216-06;30
VZIST000016;030-220-00;30
VZIST000325;030-220-03;30
VZIST000692;030-220-04;30
VZIST000820;030-223-00;30
VZIST000021;030-223-01;30
VZIST000441;030-223-02;30
VZIST000762;030-223-03;30
VZIST000704;030-223-04;30
VZIST000750;030-223-05;30
VZIST000033;030-223-06;30
VZIST000786;030-223-07;30
VZIST000610;030-223-08;30
VZIST000803;030-223-10;30
VZIST000815;030-223-11;30
VZIST000371;030-223-12;30
YNIST000030;038-203-00;31
YNIST000112;031-201-00;31
YNIST000136;031-201-01;31
YNIST000071;031-201-02;31
YNIST000013;031-201-03;31
YNIST000025;031-201-05;31
YNIST000124;031-201-06;31
YNIST000042;031-201-07;31
YNIST000141;031-201-08;31
YNIST000054;031-201-09;31
YNIST000066;031-201-10;31
YNIST000083;031-201-11;31
YNIST000095;031-201-12;31
YNIST000165;031-201-13;31
YNIST000153;031-201-14;31
YNIST000100;031-201-15;31
PENDIENTE;031-204-00;31
ZSIST000160;032-204-00;32
ZSIST000015;032-204-02;32
ZSIST000020;032-204-04;32
ZSIST000196;032-204-08;32
ZSIST000056;032-204-09;32
ZSIST000061;032-204-10;32
ZSIST000085;032-204-12;32
ZSIST000090;032-204-13;32
ZSIST000201;032-204-14;32
ZSIST000213;032-204-15;32
ZSIST000102;032-204-17;32
ZSIST000114;032-204-18;32
ZSIST000225;032-204-22;32
ZSIST000230;032-204-23;32
ZSIST000143;032-204-24;32
ZSIST000184;032-204-25;32
ZSIST000242;032-204-27;32
ZSIST000324;032-204-29;32
ZSIST000266;032-204-33;32
ZSIST000353;032-204-34;32
ZSIST000271;032-204-40;32
ZSIST000032;032-205-00;32
ZSIST000283;032-205-01;32
ZSIST000300;032-205-06;32
ZSIST000073;032-205-11;32
ZSIST000312;032-205-16;32
ZSIST000126;032-205-19;32
ZSIST000365;032-205-20;32
ZSIST000131;032-205-21;32
ZSIST000155;032-205-26;32
ZSIST000044;032-206-00;32
PENDIENTE;032-207-00;32
DFIST000090;090-201-00;9
DFIST000073;091-205-00;9
DFIST000621;091-205-01;9
DFIST000085;091-206-00;9
DFIST000633;091-206-01;9
DFIST000645;091-206-02;9
DFIST000370;091-207-00;9
DFIST000102;091-208-00;9
DFIST000481;091-209-00 ;9
DFIST000341;091-210-00;9
DFIST000382;091-211-00;9
DFIST000761;091-211-02;9
DFIST000394;091-212-00;9
DFIST000785;091-212-03;9
DFIST000790;091-212-04;9
DFIST000802;091-212-05;9
PENDIENTE;091-212-07;9
DFIST000406;091-213-00;9
DFIST000411;091-214-00;9
DFIST000826;091-214-01;9
DFIST000831;091-214-02;9
DFIST000983;091-214-04;9
DFIST000843;091-214-05;9
DFIST001041;091-214-06;9
PENDIENTE;091-214-07;9
DFIST000464;091-215-00;9
DFIST000423;091-216-00;9
DFIST000855;091-216-01;9
DFIST000435;091-217-00;9
DFIST000336;091-217-01;9
DFIST000860;091-217-02;9
DFIST000872;091-217-03;9
DFIST000884;091-217-04;9
DFIST000896;091-217-05;9
DFIST000901;091-217-06;9
DFIST000440;091-218-00;9
DFIST000913;091-218-02;9
DFIST000925;091-218-03;9
DFIST000930;091-218-04;9
DFIST000942;091-218-05;9
DFIST000995;091-218-06;9
DFIST000452;091-219-00;9
DFIST000954;091-219-01;9
DFIST000971;091-219-09;9
DFIST000353;091-220-00;9
DFIST000365;091-221-00;9
DFIST000160;097-201-00;9
DFIST000546;092-204-00;9
PENDIENTE;092-204-01;9
DFIST000551;092-205-00;9
DFIST000114;092-206-00;9
DFIST000563;092-207-00;9
DFIST000126;092-209-00;9
DFIST000155;092-210-00;9
DFIST000131;092-211-00;9
DFIST000143;092-212-00;9
DFIST000650;092-214-00;9
DFIST000015;094-204-00;9
DFIST000575;094-204-01;9
DFIST000196;094-205-00;9
DFIST000505;094-206-00;9
DFIST001000;094-206-01;9
DFIST000020;094-207-00;9
DFIST000510;094-208-00;9
DFIST001012;094-208-01;9
PENDIENTE;094-208-02;9
DFIST000534;094-209-00;9
DFIST000493;094-211-00;9
DFIST000522;094-212-00;9
DFIST000616;094-212-05;9
DFIST000300;094-214-00;9
DFIST000312;096-201-00;9
DFIST000201;098-201-00;9
DFIST000686;093-204-00;9
DFIST000271;093-205-00;9
DFIST000283;093-206-00;9
DFIST000715;093-206-01;9
DFIST000720;093-206-02;9
DFIST000732;093-206-03;9
DFIST001036;093-206-05;9
PENDIENTE;093-206-06;9
PENDIENTE;093-206-07;9
PENDIENTE;093-206-08;9
DFIST000032;093-207-00;9
DFIST000044;093-208-00;9
DFIST000580;093-208-01;9
DFIST000230;093-209-00;9
DFIST000225;093-209-01;9
DFIST000691;093-209-02;9
DFIST000056;093-210-00;9
DFIST000295;093-211-00;9
DFIST000061;093-212-00;9
DFIST000756;093-212-01;9
DFIST000592;093-212-03;9
DFIST000254;093-213-00;9
DFIST000703;093-213-02;9
DFIST000172;093-214-00;9
DFIST000324;093-215-00;9
DFIST000242;093-217-00;9
DFIST000213;093-218-00;9
DFIST000184;093-219-00;9
DFIST000662;093-219-01;9
PENDIENTE;093-219-02;9
