"1","AGUASCALIENTES"
"2","RINCON DE ROMOS"
"3","CALVILLO"
"99","NO ESPECIFICADO"
"1","MEXICALI"
"2","TIJUANA"
"3","ENSENADA"
"4","VICENTE GUERRERO"
"4","LOS CABOS"
"1","COMONDU"
"3","LA PAZ"
"2","MULEGE"
"3","CARMEN"
"1","CAMPECHE"
"2","ESCARCEGA"
"2","JUAREZ"
"1","CHIHUAHUA"
"3","PARRAL"
"4","CUAUHTEMOC"
"10","GUACHOCHI"
"7","CREEL"
"5","NUEVO CASAS GRANDES"
"9","OJINAGA"
"11","GOMEZ FARIAS"
"6","CAMARGO"
"8","SALTILLO"
"6","TORREON"
"4","MONCLOVA"
"1","PIEDRAS NEGRAS"
"2","ACUNA"
"5","CUATRO CIENEGAS"
"7","FRANCISCO I. MADERO"
"3","SABINAS"
"3","MANZANILLO"
"1","COLIMA"
"2","TECOMAN"
"1","TUXTLA GUTIERREZ"
"7","TAPACHULA"
"3","COMITAN"
"2","SAN CRISTOBAL DE LAS CASAS"
"9","OCOSINGO"
"5","PICHUCALCO"
"10","MOTOZINTLA"
"4","VILLAFLORES"
"8","TONALA"
"6","PALENQUE"
"16","VENUSTIANO CARRANZA"
"15","CUAUHTEMOC"
"7","CUAJIMALPA"
"4","COYOACAN"
"14","BENITO JUAREZ"
"2","AZCAPOTZALCO"
"13","MIGUEL HIDALGO"
"3","IZTACALCO"
"9","IZTAPALAPA"
"8","TLALPAN"
"5","ALVARO OBREGON"
"6","MAGDALENA CONTRERAS"
"11","MILPA ALTA"
"12","TLAHUAC"
"1","GUSTAVO A. MADERO"
"10","XOCHIMILCO"
"2","GOMEZ PALACIO"
"1","DURANGO"
"3","SANTIAGO PAPASQUIARO"
"4","RODEO"
"7","ACAPULCO"
"5","COSTA GRANDE"
"3","CENTRO"
"1","TIERRA CALIENTE"
"2","NORTE"
"4","MONTANA"
"6","COSTA CHICA"
"5","SALAMANCA"
"7","LEON"
"3","CELAYA"
"6","IRAPUATO"
"2","SAN MIGUEL DE ALLENDE"
"4","ACAMBARO"
"1","GUANAJUATO"
"8","LEON DELTA"
"2","TULANCINGO"
"1","PACHUCA"
"15","ATOTONILCO"
"13","OTOMI TEPEHUA"
"7","ACTOPAN"
"14","TEPEJI"
"6","IXMIQUILPAN"
"11","APAN"
"10","HUEJUTLA"
"9","MOLANGO"
"4","HUICHAPAN"
"16","JACALA"
"8","METZTITLAN"
"5","ZIMAPAN"
"3","TULA"
"17","ZACUALTIPAN"
"12","TIZAYUCA"
"10","CENTRO ZAPOPAN"
"12","CENTRO TLAQUEPAQUE"
"8","PUERTO VALLARTA"
"13","CENTRO GUADALAJARA"
"4","LA BARCA"
"11","CENTRO TONALA"
"5","TAMAZULA"
"6","CIUDAD GUZMAN"
"3","TEPATITLAN"
"2","LAGOS DE MORENO"
"9","AMECA"
"7","AUTLAN"
"1","COLOTLAN"
"5","TOLUCA"
"19","TEXCOCO"
"10","ATIZAPAN DE ZARAGOZA"
"18","NEZAHUALCOYOTL"
"14","TLALNEPANTLA"
"16","AMECAMECA"
"17","ECATEPEC"
"11","CUAUTITLAN"
"12","NAUCALPAN"
"15","ZUMPANGO"
"8","TENANCINGO"
"1","ATLACOMULCO"
"2","IXTLAHUACA"
"3","JILOTEPEC"
"4","TENANGO DEL VALLE"
"6","XONACATLAN"
"7","TEJUPILCO"
"9","VALLE DE BRAVO"
"13","TEOTIHUACAN"
"2","ZAMORA"
"1","MORELIA"
"6","LA PIEDAD"
"3","ZITACUARO"
"4","PATZCUARO"
"5","URUAPAN"
"8","LAZARO CARDENAS"
"7","APATZINGAN"
"1","CUERNAVACA"
"3","CUAUTLA"
"2","JOJUTLA"
"2","MONTERREY NORTE"
"4","GUADALUPE"
"1","MONTERREY"
"3","SAN PEDRO GARZA GARCIA"
"8","DOCTOR ARROYO"
"7","MONTEMORELOS"
"6","CADEREYTA JIMENEZ"
"5","SABINAS HIDALGO"
"1","TEPIC"
"3","TUXPAN"
"2","COMPOSTELA"
"4","COSTA"
"1","VALLES CENTRALES"
"3","TUXTEPEC"
"6","SIERRA"
"5","MIXTECA"
"2","ISTMO"
"10","TEHUACAN"
"5","HUEJOTZINGO"
"6","PUEBLA"
"9","TEPEXI DE RODRIGUEZ"
"8","ACATLAN"
"2","CHIGNAHUAPAN"
"1","HUAUCHINANGO"
"4","SAN SALVADOR EL SECO"
"3","ZACAPOAXTLA"
"7","IZUCAR DE MATAMOROS"
"2","CANCUN"
"1","CHETUMAL"
"3","FELIPE CARRILLO PUERTO"
"2","SAN JUAN DEL RIO"
"1","QUERETARO"
"3","CADEREYTA DE MONTES"
"4","JALPAN DE SERRA"
"6","MAZATLAN"
"1","LOS MOCHIS"
"2","GUASAVE"
"3","GUAMUCHIL"
"4","CULIACAN"
"5","LA CRUZ"
"4","RIOVERDE"
"5","CIUDAD VALLES"
"2","MATEHUALA"
"1","SAN LUIS POTOSI"
"3","SOLEDAD DE GRACIANO SANCHEZ"
"7","TANCANHUITZ"
"6","TAMAZUNCHALE"
"3","SANTA ANA"
"1","HERMOSILLO"
"4","CIUDAD OBREGON"
"5","NAVOJOA"
"2","CABORCA"
"6","SAN LUIS RIO COLORADO"
"4","CENTRO"
"1","BALANCAN"
"2","CARDENAS"
"3","CENTLA"
"5","COMALCALCO"
"6","CUNDUACAN"
"7","EMILIANO ZAPATA"
"8","HUIMANGUILLO"
"10","JALPA DE MENDEZ"
"11","JONUTA"
"12","MACUSPANA"
"14","PARAISO"
"15","TACOTALPA"
"16","TEAPA"
"17","TENOSIQUE"
"13","NACAJUCA"
"9","JALAPA"
"1","TLAXCALA"
"2","HUAMANTLA"
"3","APIZACO"
"4","REYNOSA"
"12","ALTAMIRA"
"9","MIGUEL ALEMAN"
"2","TAMPICO"
"6","MANTE"
"3","MATAMOROS"
"5","NUEVO LAREDO"
"10","VALLE HERMOSO"
"7","SAN FERNANDO"
"11","PADILLA"
"1","VICTORIA"
"8","JAUMAVE"
"5","XALAPA"
"3","POZA RICA"
"7","ORIZABA"
"11","COATZACOALCOS"
"10","SAN ANDRES TUXTLA"
"6","CORDOBA"
"8","VERACRUZ"
"2","TUXPAN"
"4","MARTINEZ DE LA TORRE"
"1","PANUCO"
"9","COSAMALOAPAN"
"1","MERIDA"
"2","VALLADOLID"
"3","TICUL"
"1","ZACATECAS"
"5","JALPA"
"6","TLALTENANGO"
"4","RIO GRANDE"
"7","CONCEPCION DEL ORO"
"2","OJOCALIENTE"
"3","FRESNILLO"
